"Time","Patient","RFS","Recurrence","Response"
"GSM808102","T1",1001,751,1,"0"
"GSM808103","T1",1012,2425,1,"0"
"GSM808104","T1",1013,2383,0,"0"
"GSM808105","T1",1002,1043,1,"0"
"GSM808106","T1",1005,2520,0,"0"
"GSM808107","T1",1022,1924,0,"0"
"GSM808108","T1",1017,916,1,"0"
"GSM808109","T1",1019,2370,0,"0"
"GSM808110","T1",1024,1242,1,"0"
"GSM808111","T1",1021,639,1,"1"
"GSM808112","T1",1016,759,1,"0"
"GSM808113","T1",1011,2340,0,"1"
"GSM808114","T1",1009,2355,0,"0"
"GSM808115","T1",1008,2341,0,"0"
"GSM808116","T1",1007,2449,1,"0"
"GSM808117","T1",1004,2436,0,"0"
"GSM808118","T1",1028,273,1,"0"
"GSM808119","T1",1031,1555,1,"0"
"GSM808120","T1",1027,1058,1,"0"
"GSM808121","T1",1035,729,1,"NA"
"GSM808122","T1",1032,1384,0,"0"
"GSM808123","T1",1026,2213,0,"1"
"GSM808124","T1",1033,1942,0,"0"
"GSM808125","T1",1034,410,1,"0"
"GSM808126","T1",1064,369,1,"NA"
"GSM808127","T1",1061,524,1,"0"
"GSM808128","T1",1057,179,1,"0"
"GSM808129","T1",1077,1926,0,"1"
"GSM808130","T1",1049,179,1,"0"
"GSM808131","T1",1048,1907,0,"0"
"GSM808132","T1",1047,2240,0,"0"
"GSM808133","T1",1046,1992,0,"0"
"GSM808134","T1",1045,475,1,"1"
"GSM808135","T1",1044,225,1,"0"
"GSM808136","T1",1043,224,1,"0"
"GSM808137","T1",1085,1895,0,"0"
"GSM808138","T1",1051,912,0,"1"
"GSM808139","T1",1054,303,1,"0"
"GSM808140","T1",1095,1802,0,"0"
"GSM808141","T1",1038,1843,0,"0"
"GSM808142","T1",1042,2033,0,"0"
"GSM808143","T1",1041,1679,1,"0"
"GSM808144","T1",1110,1652,0,"0"
"GSM808145","T1",1111,1808,0,"0"
"GSM808146","T1",1055,1738,0,"0"
"GSM808147","T1",1127,571,0,"0"
"GSM808148","T1",1128,1887,0,"0"
"GSM808149","T1",1129,499,1,"1"
"GSM808150","T1",1132,1719,0,"0"
"GSM808151","T1",1058,1655,0,"1"
"GSM808152","T1",1114,1756,0,"0"
"GSM808153","T1",1062,216,1,"0"
"GSM808154","T1",1075,1891,0,"1"
"GSM808155","T1",1069,1947,0,"0"
"GSM808156","T1",1078,1939,0,"1"
"GSM808157","T1",1106,677,1,"0"
"GSM808158","T1",1100,1906,0,"0"
"GSM808159","T1",1099,1967,0,"1"
"GSM808160","T1",1088,1967,0,"1"
"GSM808161","T1",1082,1812,0,"0"
"GSM808162","T1",1086,1643,0,"0"
"GSM808163","T1",1065,1273,0,"0"
"GSM808164","T1",1126,1720,0,"1"
"GSM808165","T1",1135,1596,0,"0"
"GSM808166","T1",1083,1560,0,"0"
"GSM808167","T1",1073,1725,0,"1"
"GSM808168","T1",1134,1816,0,"0"
"GSM808169","T1",1121,1498,0,"1"
"GSM808170","T1",1118,1516,0,"1"
"GSM808171","T1",1136,360,1,"0"
"GSM808172","T1",1109,1349,0,"0"
"GSM808173","T1",1107,1420,0,"0"
"GSM808174","T1",1113,1432,0,"0"
"GSM808175","T1",1139,1679,0,"1"
"GSM808176","T1",1138,1329,0,"1"
"GSM808177","T1",1123,1415,0,"0"
"GSM808178","T1",1149,1534,1,"0"
"GSM808179","T1",1147,903,1,"0"
"GSM808180","T1",1148,1646,0,"1"
"GSM808181","T1",1144,1261,0,"1"
"GSM808182","T1",1150,1617,0,"0"
"GSM808183","T1",1151,1544,0,"0"
"GSM808184","T1",1162,1470,0,"0"
"GSM808185","T1",1165,1330,0,"0"
"GSM808186","T1",1163,1280,0,"1"
"GSM808188","T1",1166,1224,0,"0"
"GSM808189","T1",1155,1615,0,"1"
"GSM808190","T1",1158,1581,0,"0"
"GSM808191","T1",1161,1190,0,"0"
"GSM808192","T1",1160,1595,0,"0"
"GSM808193","T1",1152,981,1,"0"
"GSM808194","T1",1154,1190,0,"0"
"GSM808195","T1",1142,718,1,"0"
"GSM808196","T1",1145,371,0,"1"
"GSM808197","T1",1146,283,0,"0"
"GSM808198","T1",1173,1379,0,"0"
"GSM808199","T1",1179,1456,0,"0"
"GSM808200","T1",1175,1344,0,"0"
"GSM808201","T1",1176,855,0,"1"
"GSM808202","T1",1164,1624,0,"0"
"GSM808203","T1",1169,315,1,"0"
"GSM808204","T1",1202,1441,0,"1"
"GSM808205","T1",1074,1981,0,"0"
"GSM808206","T1",1087,1513,0,"1"
"GSM808207","T1",1122,1481,0,"0"
"GSM808208","T1",1130,1375,0,"1"
"GSM808209","T1",1192,1311,0,"1"
"GSM808210","T1",1191,1238,0,"0"
"GSM808211","T1",1215,478,1,"1"
"GSM808212","T1",1208,1309,0,"1"
"GSM808213","T1",1206,481,1,"0"
"GSM808214","T1",1205,185,0,"NA"
"GSM808215","T1",1203,1303,1,"0"
"GSM808216","T1",1225,1332,0,"0"
"GSM808217","T1",1213,1113,0,"0"
"GSM808218","T1",1226,1272,0,"0"
"GSM808219","T1",1227,1234,0,"1"
"GSM808220","T1",1231,1251,0,"0"
"GSM808221","T1",1237,1031,0,"0"
"GSM808222","T1",1232,1197,0,"0"
"GSM808223","T1",1236,510,1,"0"
"GSM808224","T1",1211,1159,0,"0"
"GSM808225","T1",1239,1155,0,"0"
"GSM808226","T1",1209,970,0,"0"
"GSM808227","T1",1216,644,1,"1"
"GSM808228","T1",1218,1379,0,"0"
"GSM808229","T1",1220,1227,0,"1"
"GSM808230","T1",1223,1303,0,"0"
"GSM808231","T1",1222,1148,0,"0"
"GSM808232","T1",1187,1454,0,"0"
"GSM808233","T1",1219,1183,0,"0"
"GSM808234","T1",1184,929,0,"1"
"GSM808235","T1",1193,1425,0,"0"
"GSM808236","T1",1200,1111,1,"0"
"GSM808237","T1",1199,274,1,"0"
"GSM808238","T1",1221,644,1,"0"
"GSM808239","T1",1228,1251,0,"1"
"GSM808240","T1",1060,1622,0,"0"
"GSM808241","T1",1081,1982,0,"0"
"GSM808242","T1",1194,636,1,"0"
"GSM808243","T1",1094,1793,0,"0"
"GSM808244","T2",1001,751,1,"0"
"GSM808245","T2",1004,2436,0,"0"
"GSM808246","T2",1009,2355,0,"0"
"GSM808247","T2",1012,2425,1,"0"
"GSM808248","T2",1016,759,1,"0"
"GSM808249","T2",1017,916,1,"0"
"GSM808250","T2",1022,1924,0,"0"
"GSM808251","T2",1026,2213,0,"1"
"GSM808252","T2",1027,1058,1,"0"
"GSM808253","T2",1029,2413,0,"0"
"GSM808254","T2",1031,1555,1,"0"
"GSM808255","T2",1032,1384,0,"0"
"GSM808256","T2",1033,1942,0,"0"
"GSM808257","T2",1034,410,1,"0"
"GSM808258","T2",1035,729,1,"NA"
"GSM808259","T2",1036,391,1,"0"
"GSM808260","T2",1037,1806,0,"0"
"GSM808261","T2",1038,1843,0,"0"
"GSM808262","T2",1039,2030,0,"1"
"GSM808263","T2",1041,1679,1,"0"
"GSM808264","T2",1042,2033,0,"0"
"GSM808265","T2",1043,224,1,"0"
"GSM808266","T2",1044,225,1,"0"
"GSM808267","T2",1045,475,1,"1"
"GSM808268","T2",1049,179,1,"0"
"GSM808269","T2",1051,912,0,"1"
"GSM808270","T2",1054,303,1,"0"
"GSM808271","T2",1057,179,1,"0"
"GSM808272","T2",1058,1655,0,"1"
"GSM808273","T2",1059,1775,0,"0"
"GSM808274","T2",1063,1862,0,"0"
"GSM808275","T2",1069,1947,0,"0"
"GSM808276","T2",1077,1926,0,"1"
"GSM808277","T2",1078,1939,0,"1"
"GSM808278","T2",1081,1982,0,"0"
"GSM808279","T2",1084,1766,0,"0"
"GSM808280","T2",1086,1643,0,"0"
"GSM808281","T2",1095,1802,0,"0"
"GSM808282","T2",1100,1906,0,"0"
"GSM808283","T2",1101,483,1,"0"
"GSM808284","T2",1110,1652,0,"0"
"GSM808285","T2",1114,1756,0,"0"
"GSM808286","T2",1125,1615,0,"1"
"GSM808287","T2",1127,571,0,"0"
"GSM808288","T2",1132,1719,0,"0"
"GSM808289","T3",1002,1043,1,"0"
"GSM808290","T3",1003,2387,0,"0"
"GSM808291","T3",1004,2436,0,"0"
"GSM808292","T3",1005,2520,0,"0"
"GSM808293","T3",1008,2341,0,"0"
"GSM808294","T3",1009,2355,0,"0"
"GSM808295","T3",1016,759,1,"0"
"GSM808296","T3",1032,1384,0,"0"
"GSM808297","T3",1039,2030,0,"1"
"GSM808298","T3",1040,413,1,"0"
"GSM808299","T3",1044,225,1,"0"
"GSM808300","T3",1049,179,1,"0"
"GSM808301","T3",1054,303,1,"0"
"GSM808302","T3",1055,1738,0,"0"
"GSM808303","T3",1061,524,1,"0"
"GSM808304","T3",1062,216,1,"0"
"GSM808305","T3",1063,1862,0,"0"
"GSM808306","T3",1069,1947,0,"0"
"GSM808307","T3",1084,1766,0,"0"
"GSM808308","T3",1091,1154,1,"0"
"GSM808309","T3",1095,1802,0,"0"
"GSM808310","T3",1104,1472,0,"1"
"GSM808311","T3",1110,1652,0,"0"
"GSM808312","T3",1111,1808,0,"0"
"GSM808313","T3",1112,1510,0,"1"
"GSM808314","T3",1115,1802,0,"1"
"GSM808315","T3",1121,1498,0,"1"
"GSM808316","T3",1129,499,1,"1"
"GSM808317","T3",1139,1679,0,"1"
"GSM808318","T3",1143,862,1,"0"
"GSM808319","T3",1146,283,0,"0"
"GSM808320","T3",1149,1534,1,"0"
"GSM808321","T3",1154,1190,0,"0"
"GSM808322","T3",1159,428,1,"0"
"GSM808323","T3",1160,1595,0,"0"
"GSM808324","T3",1164,1624,0,"0"
"GSM808325","T3",1167,1289,1,"0"
"GSM808326","T3",1169,315,1,"0"
"GSM808327","T3",1170,1190,0,"0"
"GSM808328","T3",1173,1379,0,"0"
"GSM808329","T3",1175,1344,0,"0"
"GSM808330","T3",1179,1456,0,"0"
"GSM808331","T3",1181,1542,0,"0"
"GSM808332","T3",1183,1456,0,"0"
"GSM808333","T3",1185,1322,0,"0"
"GSM808334","T3",1188,1318,0,"0"
"GSM808335","T3",1191,1238,0,"0"
"GSM808336","T3",1192,1311,0,"1"
"GSM808337","T3",1193,1425,0,"0"
"GSM808338","T3",1194,636,1,"0"
"GSM808339","T3",1197,1050,0,"0"
"GSM808340","T3",1199,274,1,"0"
"GSM808341","T3",1200,1111,1,"0"
"GSM808342","T3",1203,1303,1,"0"
"GSM808343","T3",1206,481,1,"0"
"GSM808344","T3",1219,1183,0,"0"
"GSM808345","T3",1221,644,1,"0"
"GSM808346","T3",1222,1148,0,"0"
"GSM808347","T3",1225,1332,0,"0"
"GSM808348","T3",1226,1272,0,"0"
"GSM808349","T3",1230,180,1,"0"
"GSM808350","T3",1231,1251,0,"0"
