Sample ID,Patient ID,ER+,PR+,HER2+,Response,Nodes,Grade,T,N,M,RFS,Recurrence,Treatment Type,Biopsy Time,Platform,Intrinsic Subtype,DS,,,,,,,,,,,,,,,,,,,,,,,,,,,,,,,,,,
,,,,,,,,,,,,,,,,,,,,,,,,,,,,,,,,,,,,,,,,,,,,,,,,,,,
,,,,,,,,,,,,,,,,,,,,,,,,,,,,,,,,,,,,,,,,,,,,,,,,,,,
,,,,,,,,,,,,,,,,,,,,,,,,,,,,,,,,,,,,,,,,,,,,,,,,,,,
,title,,,,,,,,,,,,,,,,,,,,,,,,,,,,,,,,,,,,,,,,,,,,,,,,,,
GSM808102,1001,1,,0,0,,,,,,751,1,NAC,T1,Custom,,C2,,,,,,,,,,,,,,,,,,,,,,,,,,,,,,,,,,
GSM808103,1012,1,,0,0,,,,,,2425,1,NAC,T1,Custom,,C2,,,,,,,,,,,,,,,,,,,,,,,,,,,,,,,,,,
GSM808104,1013,1,,0,0,,,,,,2383,0,NAC,T1,Custom,,C2,,,,,,,,,,,,,,,,,,,,,,,,,,,,,,,,,,
GSM808105,1002,1,,0,0,,,,,,1043,1,NAC,T1,Custom,,C2,,,,,,,,,,,,,,,,,,,,,,,,,,,,,,,,,,
GSM808106,1005,1,,0,0,,,,,,2520,0,NAC,T1,Custom,,C2,,,,,,,,,,,,,,,,,,,,,,,,,,,,,,,,,,
GSM808107,1022,1,,0,0,,,,,,1924,0,NAC,T1,Custom,,C2,,,,,,,,,,,,,,,,,,,,,,,,,,,,,,,,,,
GSM808108,1017,0,,0,0,,,,,,916,1,NAC,T1,Custom,,C2,,,,,,,,,,,,,,,,,,,,,,,,,,,,,,,,,,
GSM808109,1019,0,,0,0,,,,,,2370,0,NAC,T1,Custom,,C2,,,,,,,,,,,,,,,,,,,,,,,,,,,,,,,,,,
GSM808110,1024,1,,0,0,,,,,,1242,1,NAC,T1,Custom,,C2,,,,,,,,,,,,,,,,,,,,,,,,,,,,,,,,,,
GSM808111,1021,1,,1,1,,,,,,639,1,NAC,T1,Custom,,C2,,,,,,,,,,,,,,,,,,,,,,,,,,,,,,,,,,
GSM808112,1016,1,,0,0,,,,,,759,1,NAC,T1,Custom,,C2,,,,,,,,,,,,,,,,,,,,,,,,,,,,,,,,,,
GSM808113,1011,0,,0,1,,,,,,2340,0,NAC,T1,Custom,,C2,,,,,,,,,,,,,,,,,,,,,,,,,,,,,,,,,,
GSM808114,1009,0,,0,0,,,,,,2355,0,NAC,T1,Custom,,C2,,,,,,,,,,,,,,,,,,,,,,,,,,,,,,,,,,
GSM808115,1008,1,,0,0,,,,,,2341,0,NAC,T1,Custom,,C2,,,,,,,,,,,,,,,,,,,,,,,,,,,,,,,,,,
GSM808116,1007,1,,0,0,,,,,,2449,1,NAC,T1,Custom,,C2,,,,,,,,,,,,,,,,,,,,,,,,,,,,,,,,,,
GSM808117,1004,0,,0,0,,,,,,2436,0,NAC,T1,Custom,,C2,,,,,,,,,,,,,,,,,,,,,,,,,,,,,,,,,,
GSM808118,1028,0,,0,0,,,,,,273,1,NAC,T1,Custom,,C2,,,,,,,,,,,,,,,,,,,,,,,,,,,,,,,,,,
GSM808119,1031,1,,0,0,,,,,,1555,1,NAC,T1,Custom,,C2,,,,,,,,,,,,,,,,,,,,,,,,,,,,,,,,,,
GSM808120,1027,0,,0,0,,,,,,1058,1,NAC,T1,Custom,,C2,,,,,,,,,,,,,,,,,,,,,,,,,,,,,,,,,,
GSM808121,1035,1,,1,NA,,,,,,729,1,NAC,T1,Custom,,C2,,,,,,,,,,,,,,,,,,,,,,,,,,,,,,,,,,
GSM808122,1032,1,,0,0,,,,,,1384,0,NAC,T1,Custom,,C2,,,,,,,,,,,,,,,,,,,,,,,,,,,,,,,,,,
GSM808123,1026,1,,1,1,,,,,,2213,0,NAC,T1,Custom,,C2,,,,,,,,,,,,,,,,,,,,,,,,,,,,,,,,,,
GSM808124,1033,1,,0,0,,,,,,1942,0,NAC,T1,Custom,,C2,,,,,,,,,,,,,,,,,,,,,,,,,,,,,,,,,,
GSM808125,1034,0,,0,0,,,,,,410,1,NAC,T1,Custom,,C2,,,,,,,,,,,,,,,,,,,,,,,,,,,,,,,,,,
GSM808126,1064,0,,0,NA,,,,,,369,1,NAC,T1,Custom,,C2,,,,,,,,,,,,,,,,,,,,,,,,,,,,,,,,,,
GSM808127,1061,0,,1,0,,,,,,524,1,NAC,T1,Custom,,C2,,,,,,,,,,,,,,,,,,,,,,,,,,,,,,,,,,
GSM808128,1057,0,,0,0,,,,,,179,1,NAC,T1,Custom,,C2,,,,,,,,,,,,,,,,,,,,,,,,,,,,,,,,,,
GSM808129,1077,1,,1,1,,,,,,1926,0,NAC,T1,Custom,,C2,,,,,,,,,,,,,,,,,,,,,,,,,,,,,,,,,,
GSM808130,1049,0,,0,0,,,,,,179,1,NAC,T1,Custom,,C2,,,,,,,,,,,,,,,,,,,,,,,,,,,,,,,,,,
GSM808131,1048,1,,0,0,,,,,,1907,0,NAC,T1,Custom,,C2,,,,,,,,,,,,,,,,,,,,,,,,,,,,,,,,,,
GSM808132,1047,1,,0,0,,,,,,2240,0,NAC,T1,Custom,,C2,,,,,,,,,,,,,,,,,,,,,,,,,,,,,,,,,,
GSM808133,1046,1,,0,0,,,,,,1992,0,NAC,T1,Custom,,C2,,,,,,,,,,,,,,,,,,,,,,,,,,,,,,,,,,
GSM808134,1045,0,,0,1,,,,,,475,1,NAC,T1,Custom,,C2,,,,,,,,,,,,,,,,,,,,,,,,,,,,,,,,,,
GSM808135,1044,0,,0,0,,,,,,225,1,NAC,T1,Custom,,C2,,,,,,,,,,,,,,,,,,,,,,,,,,,,,,,,,,
GSM808136,1043,1,,1,0,,,,,,224,1,NAC,T1,Custom,,C2,,,,,,,,,,,,,,,,,,,,,,,,,,,,,,,,,,
GSM808137,1085,1,,0,0,,,,,,1895,0,NAC,T1,Custom,,C2,,,,,,,,,,,,,,,,,,,,,,,,,,,,,,,,,,
GSM808138,1051,1,,0,1,,,,,,912,0,NAC,T1,Custom,,C2,,,,,,,,,,,,,,,,,,,,,,,,,,,,,,,,,,
GSM808139,1054,0,,0,0,,,,,,303,1,NAC,T1,Custom,,C2,,,,,,,,,,,,,,,,,,,,,,,,,,,,,,,,,,
GSM808140,1095,1,,0,0,,,,,,1802,0,NAC,T1,Custom,,C2,,,,,,,,,,,,,,,,,,,,,,,,,,,,,,,,,,
GSM808141,1038,0,,0,0,,,,,,1843,0,NAC,T1,Custom,,C2,,,,,,,,,,,,,,,,,,,,,,,,,,,,,,,,,,
GSM808142,1042,1,,0,0,,,,,,2033,0,NAC,T1,Custom,,C2,,,,,,,,,,,,,,,,,,,,,,,,,,,,,,,,,,
GSM808143,1041,1,,1,0,,,,,,1679,1,NAC,T1,Custom,,C2,,,,,,,,,,,,,,,,,,,,,,,,,,,,,,,,,,
GSM808144,1110,1,,0,0,,,,,,1652,0,NAC,T1,Custom,,C2,,,,,,,,,,,,,,,,,,,,,,,,,,,,,,,,,,
GSM808145,1111,1,,0,0,,,,,,1808,0,NAC,T1,Custom,,C2,,,,,,,,,,,,,,,,,,,,,,,,,,,,,,,,,,
GSM808146,1055,1,,0,0,,,,,,1738,0,NAC,T1,Custom,,C2,,,,,,,,,,,,,,,,,,,,,,,,,,,,,,,,,,
GSM808147,1127,1,,0,0,,,,,,571,0,NAC,T1,Custom,,C2,,,,,,,,,,,,,,,,,,,,,,,,,,,,,,,,,,
GSM808148,1128,1,,1,0,,,,,,1887,0,NAC,T1,Custom,,C2,,,,,,,,,,,,,,,,,,,,,,,,,,,,,,,,,,
GSM808149,1129,0,,1,1,,,,,,499,1,NAC,T1,Custom,,C2,,,,,,,,,,,,,,,,,,,,,,,,,,,,,,,,,,
GSM808150,1132,1,,0,0,,,,,,1719,0,NAC,T1,Custom,,C2,,,,,,,,,,,,,,,,,,,,,,,,,,,,,,,,,,
GSM808151,1058,0,,0,1,,,,,,1655,0,NAC,T1,Custom,,C2,,,,,,,,,,,,,,,,,,,,,,,,,,,,,,,,,,
GSM808152,1114,1,,0,0,,,,,,1756,0,NAC,T1,Custom,,C2,,,,,,,,,,,,,,,,,,,,,,,,,,,,,,,,,,
GSM808153,1062,1,,0,0,,,,,,216,1,NAC,T1,Custom,,C2,,,,,,,,,,,,,,,,,,,,,,,,,,,,,,,,,,
GSM808154,1075,0,,0,1,,,,,,1891,0,NAC,T1,Custom,,C2,,,,,,,,,,,,,,,,,,,,,,,,,,,,,,,,,,
GSM808155,1069,1,,0,0,,,,,,1947,0,NAC,T1,Custom,,C2,,,,,,,,,,,,,,,,,,,,,,,,,,,,,,,,,,
GSM808156,1078,1,,0,1,,,,,,1939,0,NAC,T1,Custom,,C2,,,,,,,,,,,,,,,,,,,,,,,,,,,,,,,,,,
GSM808157,1106,1,,0,0,,,,,,677,1,NAC,T1,Custom,,C2,,,,,,,,,,,,,,,,,,,,,,,,,,,,,,,,,,
GSM808158,1100,1,,0,0,,,,,,1906,0,NAC,T1,Custom,,C2,,,,,,,,,,,,,,,,,,,,,,,,,,,,,,,,,,
GSM808159,1099,0,,0,1,,,,,,1967,0,NAC,T1,Custom,,C2,,,,,,,,,,,,,,,,,,,,,,,,,,,,,,,,,,
GSM808160,1088,1,,0,1,,,,,,1967,0,NAC,T1,Custom,,C2,,,,,,,,,,,,,,,,,,,,,,,,,,,,,,,,,,
GSM808161,1082,1,,1,0,,,,,,1812,0,NAC,T1,Custom,,C2,,,,,,,,,,,,,,,,,,,,,,,,,,,,,,,,,,
GSM808162,1086,1,,1,0,,,,,,1643,0,NAC,T1,Custom,,C2,,,,,,,,,,,,,,,,,,,,,,,,,,,,,,,,,,
GSM808163,1065,1,,1,0,,,,,,1273,0,NAC,T1,Custom,,C2,,,,,,,,,,,,,,,,,,,,,,,,,,,,,,,,,,
GSM808164,1126,0,,0,1,,,,,,1720,0,NAC,T1,Custom,,C2,,,,,,,,,,,,,,,,,,,,,,,,,,,,,,,,,,
GSM808165,1135,0,,0,0,,,,,,1596,0,NAC,T1,Custom,,C2,,,,,,,,,,,,,,,,,,,,,,,,,,,,,,,,,,
GSM808166,1083,1,,1,0,,,,,,1560,0,NAC,T1,Custom,,C2,,,,,,,,,,,,,,,,,,,,,,,,,,,,,,,,,,
GSM808167,1073,0,,1,1,,,,,,1725,0,NAC,T1,Custom,,C2,,,,,,,,,,,,,,,,,,,,,,,,,,,,,,,,,,
GSM808168,1134,1,,0,0,,,,,,1816,0,NAC,T1,Custom,,C2,,,,,,,,,,,,,,,,,,,,,,,,,,,,,,,,,,
GSM808169,1121,0,,0,1,,,,,,1498,0,NAC,T1,Custom,,C2,,,,,,,,,,,,,,,,,,,,,,,,,,,,,,,,,,
GSM808170,1118,1,,1,1,,,,,,1516,0,NAC,T1,Custom,,C2,,,,,,,,,,,,,,,,,,,,,,,,,,,,,,,,,,
GSM808171,1136,0,,0,0,,,,,,360,1,NAC,T1,Custom,,C2,,,,,,,,,,,,,,,,,,,,,,,,,,,,,,,,,,
GSM808172,1109,1,,1,0,,,,,,1349,0,NAC,T1,Custom,,C2,,,,,,,,,,,,,,,,,,,,,,,,,,,,,,,,,,
GSM808173,1107,1,,0,0,,,,,,1420,0,NAC,T1,Custom,,C2,,,,,,,,,,,,,,,,,,,,,,,,,,,,,,,,,,
GSM808174,1113,1,,0,0,,,,,,1432,0,NAC,T1,Custom,,C2,,,,,,,,,,,,,,,,,,,,,,,,,,,,,,,,,,
GSM808175,1139,0,,0,1,,,,,,1679,0,NAC,T1,Custom,,C2,,,,,,,,,,,,,,,,,,,,,,,,,,,,,,,,,,
GSM808176,1138,1,,0,1,,,,,,1329,0,NAC,T1,Custom,,C2,,,,,,,,,,,,,,,,,,,,,,,,,,,,,,,,,,
GSM808177,1123,1,,0,0,,,,,,1415,0,NAC,T1,Custom,,C2,,,,,,,,,,,,,,,,,,,,,,,,,,,,,,,,,,
GSM808178,1149,0,,0,0,,,,,,1534,1,NAC,T1,Custom,,C2,,,,,,,,,,,,,,,,,,,,,,,,,,,,,,,,,,
GSM808179,1147,0,,0,0,,,,,,903,1,NAC,T1,Custom,,C2,,,,,,,,,,,,,,,,,,,,,,,,,,,,,,,,,,
GSM808180,1148,0,,1,1,,,,,,1646,0,NAC,T1,Custom,,C2,,,,,,,,,,,,,,,,,,,,,,,,,,,,,,,,,,
GSM808181,1144,0,,NA,1,,,,,,1261,0,NAC,T1,Custom,,C2,,,,,,,,,,,,,,,,,,,,,,,,,,,,,,,,,,
GSM808182,1150,1,,0,0,,,,,,1617,0,NAC,T1,Custom,,C2,,,,,,,,,,,,,,,,,,,,,,,,,,,,,,,,,,
GSM808183,1151,1,,1,0,,,,,,1544,0,NAC,T1,Custom,,C2,,,,,,,,,,,,,,,,,,,,,,,,,,,,,,,,,,
GSM808184,1162,0,,1,0,,,,,,1470,0,NAC,T1,Custom,,C2,,,,,,,,,,,,,,,,,,,,,,,,,,,,,,,,,,
GSM808185,1165,0,,0,0,,,,,,1330,0,NAC,T1,Custom,,C2,,,,,,,,,,,,,,,,,,,,,,,,,,,,,,,,,,
GSM808186,1163,0,,0,1,,,,,,1280,0,NAC,T1,Custom,,C2,,,,,,,,,,,,,,,,,,,,,,,,,,,,,,,,,,
GSM808188,1166,1,,0,0,,,,,,1224,0,NAC,T1,Custom,,C2,,,,,,,,,,,,,,,,,,,,,,,,,,,,,,,,,,
GSM808189,1155,0,,0,1,,,,,,1615,0,NAC,T1,Custom,,C2,,,,,,,,,,,,,,,,,,,,,,,,,,,,,,,,,,
GSM808190,1158,1,,0,0,,,,,,1581,0,NAC,T1,Custom,,C2,,,,,,,,,,,,,,,,,,,,,,,,,,,,,,,,,,
GSM808191,1161,0,,1,0,,,,,,1190,0,NAC,T1,Custom,,C2,,,,,,,,,,,,,,,,,,,,,,,,,,,,,,,,,,
GSM808192,1160,0,,0,0,,,,,,1595,0,NAC,T1,Custom,,C2,,,,,,,,,,,,,,,,,,,,,,,,,,,,,,,,,,
GSM808193,1152,1,,1,0,,,,,,981,1,NAC,T1,Custom,,C2,,,,,,,,,,,,,,,,,,,,,,,,,,,,,,,,,,
GSM808194,1154,1,,0,0,,,,,,1190,0,NAC,T1,Custom,,C2,,,,,,,,,,,,,,,,,,,,,,,,,,,,,,,,,,
GSM808195,1142,1,,NA,0,,,,,,718,1,NAC,T1,Custom,,C2,,,,,,,,,,,,,,,,,,,,,,,,,,,,,,,,,,
GSM808196,1145,0,,1,1,,,,,,371,0,NAC,T1,Custom,,C2,,,,,,,,,,,,,,,,,,,,,,,,,,,,,,,,,,
GSM808197,1146,1,,0,0,,,,,,283,0,NAC,T1,Custom,,C2,,,,,,,,,,,,,,,,,,,,,,,,,,,,,,,,,,
GSM808198,1173,NA,,NA,0,,,,,,1379,0,NAC,T1,Custom,,C2,,,,,,,,,,,,,,,,,,,,,,,,,,,,,,,,,,
GSM808199,1179,0,,0,0,,,,,,1456,0,NAC,T1,Custom,,C2,,,,,,,,,,,,,,,,,,,,,,,,,,,,,,,,,,
GSM808200,1175,1,,0,0,,,,,,1344,0,NAC,T1,Custom,,C2,,,,,,,,,,,,,,,,,,,,,,,,,,,,,,,,,,
GSM808201,1176,0,,1,1,,,,,,855,0,NAC,T1,Custom,,C2,,,,,,,,,,,,,,,,,,,,,,,,,,,,,,,,,,
GSM808202,1164,1,,0,0,,,,,,1624,0,NAC,T1,Custom,,C2,,,,,,,,,,,,,,,,,,,,,,,,,,,,,,,,,,
GSM808203,1169,0,,0,0,,,,,,315,1,NAC,T1,Custom,,C2,,,,,,,,,,,,,,,,,,,,,,,,,,,,,,,,,,
GSM808204,1202,1,,0,1,,,,,,1441,0,NAC,T1,Custom,,C2,,,,,,,,,,,,,,,,,,,,,,,,,,,,,,,,,,
GSM808205,1074,1,,0,0,,,,,,1981,0,NAC,T1,Custom,,C2,,,,,,,,,,,,,,,,,,,,,,,,,,,,,,,,,,
GSM808206,1087,0,,1,1,,,,,,1513,0,NAC,T1,Custom,,C2,,,,,,,,,,,,,,,,,,,,,,,,,,,,,,,,,,
GSM808207,1122,0,,1,0,,,,,,1481,0,NAC,T1,Custom,,C2,,,,,,,,,,,,,,,,,,,,,,,,,,,,,,,,,,
GSM808208,1130,1,,0,1,,,,,,1375,0,NAC,T1,Custom,,C2,,,,,,,,,,,,,,,,,,,,,,,,,,,,,,,,,,
GSM808209,1192,0,,NA,1,,,,,,1311,0,NAC,T1,Custom,,C2,,,,,,,,,,,,,,,,,,,,,,,,,,,,,,,,,,
GSM808210,1191,1,,0,0,,,,,,1238,0,NAC,T1,Custom,,C2,,,,,,,,,,,,,,,,,,,,,,,,,,,,,,,,,,
GSM808211,1215,1,,1,1,,,,,,478,1,NAC,T1,Custom,,C2,,,,,,,,,,,,,,,,,,,,,,,,,,,,,,,,,,
GSM808212,1208,0,,0,1,,,,,,1309,0,NAC,T1,Custom,,C2,,,,,,,,,,,,,,,,,,,,,,,,,,,,,,,,,,
GSM808213,1206,1,,0,0,,,,,,481,1,NAC,T1,Custom,,C2,,,,,,,,,,,,,,,,,,,,,,,,,,,,,,,,,,
GSM808214,1205,1,,0,NA,,,,,,185,0,NAC,T1,Custom,,C2,,,,,,,,,,,,,,,,,,,,,,,,,,,,,,,,,,
GSM808215,1203,1,,0,0,,,,,,1303,1,NAC,T1,Custom,,C2,,,,,,,,,,,,,,,,,,,,,,,,,,,,,,,,,,
GSM808216,1225,1,,0,0,,,,,,1332,0,NAC,T1,Custom,,C2,,,,,,,,,,,,,,,,,,,,,,,,,,,,,,,,,,
GSM808217,1213,1,,1,0,,,,,,1113,0,NAC,T1,Custom,,C2,,,,,,,,,,,,,,,,,,,,,,,,,,,,,,,,,,
GSM808218,1226,1,,0,0,,,,,,1272,0,NAC,T1,Custom,,C2,,,,,,,,,,,,,,,,,,,,,,,,,,,,,,,,,,
GSM808219,1227,0,,0,1,,,,,,1234,0,NAC,T1,Custom,,C2,,,,,,,,,,,,,,,,,,,,,,,,,,,,,,,,,,
GSM808220,1231,1,,0,0,,,,,,1251,0,NAC,T1,Custom,,C2,,,,,,,,,,,,,,,,,,,,,,,,,,,,,,,,,,
GSM808221,1237,1,,1,0,,,,,,1031,0,NAC,T1,Custom,,C2,,,,,,,,,,,,,,,,,,,,,,,,,,,,,,,,,,
GSM808222,1232,1,,0,0,,,,,,1197,0,NAC,T1,Custom,,C2,,,,,,,,,,,,,,,,,,,,,,,,,,,,,,,,,,
GSM808223,1236,1,,0,0,,,,,,510,1,NAC,T1,Custom,,C2,,,,,,,,,,,,,,,,,,,,,,,,,,,,,,,,,,
GSM808224,1211,1,,0,0,,,,,,1159,0,NAC,T1,Custom,,C2,,,,,,,,,,,,,,,,,,,,,,,,,,,,,,,,,,
GSM808225,1239,1,,0,0,,,,,,1155,0,NAC,T1,Custom,,C2,,,,,,,,,,,,,,,,,,,,,,,,,,,,,,,,,,
GSM808226,1209,1,,0,0,,,,,,970,0,NAC,T1,Custom,,C2,,,,,,,,,,,,,,,,,,,,,,,,,,,,,,,,,,
GSM808227,1216,0,,0,1,,,,,,644,1,NAC,T1,Custom,,C2,,,,,,,,,,,,,,,,,,,,,,,,,,,,,,,,,,
GSM808228,1218,0,,0,0,,,,,,1379,0,NAC,T1,Custom,,C2,,,,,,,,,,,,,,,,,,,,,,,,,,,,,,,,,,
GSM808229,1220,0,,0,1,,,,,,1227,0,NAC,T1,Custom,,C2,,,,,,,,,,,,,,,,,,,,,,,,,,,,,,,,,,
GSM808230,1223,1,,0,0,,,,,,1303,0,NAC,T1,Custom,,C2,,,,,,,,,,,,,,,,,,,,,,,,,,,,,,,,,,
GSM808231,1222,0,,1,0,,,,,,1148,0,NAC,T1,Custom,,C2,,,,,,,,,,,,,,,,,,,,,,,,,,,,,,,,,,
GSM808232,1187,0,,0,0,,,,,,1454,0,NAC,T1,Custom,,C2,,,,,,,,,,,,,,,,,,,,,,,,,,,,,,,,,,
GSM808233,1219,1,,0,0,,,,,,1183,0,NAC,T1,Custom,,C2,,,,,,,,,,,,,,,,,,,,,,,,,,,,,,,,,,
GSM808234,1184,0,,0,1,,,,,,929,0,NAC,T1,Custom,,C2,,,,,,,,,,,,,,,,,,,,,,,,,,,,,,,,,,
GSM808235,1193,1,,0,0,,,,,,1425,0,NAC,T1,Custom,,C2,,,,,,,,,,,,,,,,,,,,,,,,,,,,,,,,,,
GSM808236,1200,1,,0,0,,,,,,1111,1,NAC,T1,Custom,,C2,,,,,,,,,,,,,,,,,,,,,,,,,,,,,,,,,,
GSM808237,1199,0,,0,0,,,,,,274,1,NAC,T1,Custom,,C2,,,,,,,,,,,,,,,,,,,,,,,,,,,,,,,,,,
GSM808238,1221,1,,1,0,,,,,,644,1,NAC,T1,Custom,,C2,,,,,,,,,,,,,,,,,,,,,,,,,,,,,,,,,,
GSM808239,1228,0,,1,1,,,,,,1251,0,NAC,T1,Custom,,C2,,,,,,,,,,,,,,,,,,,,,,,,,,,,,,,,,,
GSM808240,1060,1,,0,0,,,,,,1622,0,NAC,T1,Custom,,C2,,,,,,,,,,,,,,,,,,,,,,,,,,,,,,,,,,
GSM808241,1081,1,,0,0,,,,,,1982,0,NAC,T1,Custom,,C2,,,,,,,,,,,,,,,,,,,,,,,,,,,,,,,,,,
GSM808242,1194,1,,0,0,,,,,,636,1,NAC,T1,Custom,,C2,,,,,,,,,,,,,,,,,,,,,,,,,,,,,,,,,,
GSM808243,1094,1,,0,0,,,,,,1793,0,NAC,T1,Custom,,C2,,,,,,,,,,,,,,,,,,,,,,,,,,,,,,,,,,
GSM808244,1001,1,,0,0,,,,,,751,1,NAC,T2,Custom,,C2,,,,,,,,,,,,,,,,,,,,,,,,,,,,,,,,,,
GSM808245,1004,0,,0,0,,,,,,2436,0,NAC,T2,Custom,,C2,,,,,,,,,,,,,,,,,,,,,,,,,,,,,,,,,,
GSM808246,1009,0,,0,0,,,,,,2355,0,NAC,T2,Custom,,C2,,,,,,,,,,,,,,,,,,,,,,,,,,,,,,,,,,
GSM808247,1012,1,,0,0,,,,,,2425,1,NAC,T2,Custom,,C2,,,,,,,,,,,,,,,,,,,,,,,,,,,,,,,,,,
GSM808248,1016,1,,0,0,,,,,,759,1,NAC,T2,Custom,,C2,,,,,,,,,,,,,,,,,,,,,,,,,,,,,,,,,,
GSM808249,1017,0,,0,0,,,,,,916,1,NAC,T2,Custom,,C2,,,,,,,,,,,,,,,,,,,,,,,,,,,,,,,,,,
GSM808250,1022,1,,0,0,,,,,,1924,0,NAC,T2,Custom,,C2,,,,,,,,,,,,,,,,,,,,,,,,,,,,,,,,,,
GSM808251,1026,1,,1,1,,,,,,2213,0,NAC,T2,Custom,,C2,,,,,,,,,,,,,,,,,,,,,,,,,,,,,,,,,,
GSM808252,1027,0,,0,0,,,,,,1058,1,NAC,T2,Custom,,C2,,,,,,,,,,,,,,,,,,,,,,,,,,,,,,,,,,
GSM808253,1029,1,,1,0,,,,,,2413,0,NAC,T2,Custom,,C2,,,,,,,,,,,,,,,,,,,,,,,,,,,,,,,,,,
GSM808254,1031,1,,0,0,,,,,,1555,1,NAC,T2,Custom,,C2,,,,,,,,,,,,,,,,,,,,,,,,,,,,,,,,,,
GSM808255,1032,1,,0,0,,,,,,1384,0,NAC,T2,Custom,,C2,,,,,,,,,,,,,,,,,,,,,,,,,,,,,,,,,,
GSM808256,1033,1,,0,0,,,,,,1942,0,NAC,T2,Custom,,C2,,,,,,,,,,,,,,,,,,,,,,,,,,,,,,,,,,
GSM808257,1034,0,,0,0,,,,,,410,1,NAC,T2,Custom,,C2,,,,,,,,,,,,,,,,,,,,,,,,,,,,,,,,,,
GSM808258,1035,1,,1,NA,,,,,,729,1,NAC,T2,Custom,,C2,,,,,,,,,,,,,,,,,,,,,,,,,,,,,,,,,,
GSM808259,1036,0,,1,0,,,,,,391,1,NAC,T2,Custom,,C2,,,,,,,,,,,,,,,,,,,,,,,,,,,,,,,,,,
GSM808260,1037,0,,0,0,,,,,,1806,0,NAC,T2,Custom,,C2,,,,,,,,,,,,,,,,,,,,,,,,,,,,,,,,,,
GSM808261,1038,0,,0,0,,,,,,1843,0,NAC,T2,Custom,,C2,,,,,,,,,,,,,,,,,,,,,,,,,,,,,,,,,,
GSM808262,1039,0,,1,1,,,,,,2030,0,NAC,T2,Custom,,C2,,,,,,,,,,,,,,,,,,,,,,,,,,,,,,,,,,
GSM808263,1041,1,,1,0,,,,,,1679,1,NAC,T2,Custom,,C2,,,,,,,,,,,,,,,,,,,,,,,,,,,,,,,,,,
GSM808264,1042,1,,0,0,,,,,,2033,0,NAC,T2,Custom,,C2,,,,,,,,,,,,,,,,,,,,,,,,,,,,,,,,,,
GSM808265,1043,1,,1,0,,,,,,224,1,NAC,T2,Custom,,C2,,,,,,,,,,,,,,,,,,,,,,,,,,,,,,,,,,
GSM808266,1044,0,,0,0,,,,,,225,1,NAC,T2,Custom,,C2,,,,,,,,,,,,,,,,,,,,,,,,,,,,,,,,,,
GSM808267,1045,0,,0,1,,,,,,475,1,NAC,T2,Custom,,C2,,,,,,,,,,,,,,,,,,,,,,,,,,,,,,,,,,
GSM808268,1049,0,,0,0,,,,,,179,1,NAC,T2,Custom,,C2,,,,,,,,,,,,,,,,,,,,,,,,,,,,,,,,,,
GSM808269,1051,1,,0,1,,,,,,912,0,NAC,T2,Custom,,C2,,,,,,,,,,,,,,,,,,,,,,,,,,,,,,,,,,
GSM808270,1054,0,,0,0,,,,,,303,1,NAC,T2,Custom,,C2,,,,,,,,,,,,,,,,,,,,,,,,,,,,,,,,,,
GSM808271,1057,0,,0,0,,,,,,179,1,NAC,T2,Custom,,C2,,,,,,,,,,,,,,,,,,,,,,,,,,,,,,,,,,
GSM808272,1058,0,,0,1,,,,,,1655,0,NAC,T2,Custom,,C2,,,,,,,,,,,,,,,,,,,,,,,,,,,,,,,,,,
GSM808273,1059,1,,0,0,,,,,,1775,0,NAC,T2,Custom,,C2,,,,,,,,,,,,,,,,,,,,,,,,,,,,,,,,,,
GSM808274,1063,1,,1,0,,,,,,1862,0,NAC,T2,Custom,,C2,,,,,,,,,,,,,,,,,,,,,,,,,,,,,,,,,,
GSM808275,1069,1,,0,0,,,,,,1947,0,NAC,T2,Custom,,C2,,,,,,,,,,,,,,,,,,,,,,,,,,,,,,,,,,
GSM808276,1077,1,,1,1,,,,,,1926,0,NAC,T2,Custom,,C2,,,,,,,,,,,,,,,,,,,,,,,,,,,,,,,,,,
GSM808277,1078,1,,0,1,,,,,,1939,0,NAC,T2,Custom,,C2,,,,,,,,,,,,,,,,,,,,,,,,,,,,,,,,,,
GSM808278,1081,1,,0,0,,,,,,1982,0,NAC,T2,Custom,,C2,,,,,,,,,,,,,,,,,,,,,,,,,,,,,,,,,,
GSM808279,1084,1,,1,0,,,,,,1766,0,NAC,T2,Custom,,C2,,,,,,,,,,,,,,,,,,,,,,,,,,,,,,,,,,
GSM808280,1086,1,,1,0,,,,,,1643,0,NAC,T2,Custom,,C2,,,,,,,,,,,,,,,,,,,,,,,,,,,,,,,,,,
GSM808281,1095,1,,0,0,,,,,,1802,0,NAC,T2,Custom,,C2,,,,,,,,,,,,,,,,,,,,,,,,,,,,,,,,,,
GSM808282,1100,1,,0,0,,,,,,1906,0,NAC,T2,Custom,,C2,,,,,,,,,,,,,,,,,,,,,,,,,,,,,,,,,,
GSM808283,1101,0,,1,0,,,,,,483,1,NAC,T2,Custom,,C2,,,,,,,,,,,,,,,,,,,,,,,,,,,,,,,,,,
GSM808284,1110,1,,0,0,,,,,,1652,0,NAC,T2,Custom,,C2,,,,,,,,,,,,,,,,,,,,,,,,,,,,,,,,,,
GSM808285,1114,1,,0,0,,,,,,1756,0,NAC,T2,Custom,,C2,,,,,,,,,,,,,,,,,,,,,,,,,,,,,,,,,,
GSM808286,1125,1,,0,1,,,,,,1615,0,NAC,T2,Custom,,C2,,,,,,,,,,,,,,,,,,,,,,,,,,,,,,,,,,
GSM808287,1127,1,,0,0,,,,,,571,0,NAC,T2,Custom,,C2,,,,,,,,,,,,,,,,,,,,,,,,,,,,,,,,,,
GSM808288,1132,1,,0,0,,,,,,1719,0,NAC,T2,Custom,,C2,,,,,,,,,,,,,,,,,,,,,,,,,,,,,,,,,,
GSM808289,1002,1,,0,0,,,,,,1043,1,NAC,TS,Custom,,C2,,,,,,,,,,,,,,,,,,,,,,,,,,,,,,,,,,
GSM808290,1003,1,,0,0,,,,,,2387,0,NAC,TS,Custom,,C2,,,,,,,,,,,,,,,,,,,,,,,,,,,,,,,,,,
GSM808291,1004,0,,0,0,,,,,,2436,0,NAC,TS,Custom,,C2,,,,,,,,,,,,,,,,,,,,,,,,,,,,,,,,,,
GSM808292,1005,1,,0,0,,,,,,2520,0,NAC,TS,Custom,,C2,,,,,,,,,,,,,,,,,,,,,,,,,,,,,,,,,,
GSM808293,1008,1,,0,0,,,,,,2341,0,NAC,TS,Custom,,C2,,,,,,,,,,,,,,,,,,,,,,,,,,,,,,,,,,
GSM808294,1009,0,,0,0,,,,,,2355,0,NAC,TS,Custom,,C2,,,,,,,,,,,,,,,,,,,,,,,,,,,,,,,,,,
GSM808295,1016,1,,0,0,,,,,,759,1,NAC,TS,Custom,,C2,,,,,,,,,,,,,,,,,,,,,,,,,,,,,,,,,,
GSM808296,1032,1,,0,0,,,,,,1384,0,NAC,TS,Custom,,C2,,,,,,,,,,,,,,,,,,,,,,,,,,,,,,,,,,
GSM808297,1039,0,,1,1,,,,,,2030,0,NAC,TS,Custom,,C2,,,,,,,,,,,,,,,,,,,,,,,,,,,,,,,,,,
GSM808298,1040,0,,0,0,,,,,,413,1,NAC,TS,Custom,,C2,,,,,,,,,,,,,,,,,,,,,,,,,,,,,,,,,,
GSM808299,1044,0,,0,0,,,,,,225,1,NAC,TS,Custom,,C2,,,,,,,,,,,,,,,,,,,,,,,,,,,,,,,,,,
GSM808300,1049,0,,0,0,,,,,,179,1,NAC,TS,Custom,,C2,,,,,,,,,,,,,,,,,,,,,,,,,,,,,,,,,,
GSM808301,1054,0,,0,0,,,,,,303,1,NAC,TS,Custom,,C2,,,,,,,,,,,,,,,,,,,,,,,,,,,,,,,,,,
GSM808302,1055,1,,0,0,,,,,,1738,0,NAC,TS,Custom,,C2,,,,,,,,,,,,,,,,,,,,,,,,,,,,,,,,,,
GSM808303,1061,0,,1,0,,,,,,524,1,NAC,TS,Custom,,C2,,,,,,,,,,,,,,,,,,,,,,,,,,,,,,,,,,
GSM808304,1062,1,,0,0,,,,,,216,1,NAC,TS,Custom,,C2,,,,,,,,,,,,,,,,,,,,,,,,,,,,,,,,,,
GSM808305,1063,1,,1,0,,,,,,1862,0,NAC,TS,Custom,,C2,,,,,,,,,,,,,,,,,,,,,,,,,,,,,,,,,,
GSM808306,1069,1,,0,0,,,,,,1947,0,NAC,TS,Custom,,C2,,,,,,,,,,,,,,,,,,,,,,,,,,,,,,,,,,
GSM808307,1084,1,,1,0,,,,,,1766,0,NAC,TS,Custom,,C2,,,,,,,,,,,,,,,,,,,,,,,,,,,,,,,,,,
GSM808308,1091,0,,1,0,,,,,,1154,1,NAC,TS,Custom,,C2,,,,,,,,,,,,,,,,,,,,,,,,,,,,,,,,,,
GSM808309,1095,1,,0,0,,,,,,1802,0,NAC,TS,Custom,,C2,,,,,,,,,,,,,,,,,,,,,,,,,,,,,,,,,,
GSM808310,1104,0,,1,1,,,,,,1472,0,NAC,TS,Custom,,C2,,,,,,,,,,,,,,,,,,,,,,,,,,,,,,,,,,
GSM808311,1110,1,,0,0,,,,,,1652,0,NAC,TS,Custom,,C2,,,,,,,,,,,,,,,,,,,,,,,,,,,,,,,,,,
GSM808312,1111,1,,0,0,,,,,,1808,0,NAC,TS,Custom,,C2,,,,,,,,,,,,,,,,,,,,,,,,,,,,,,,,,,
GSM808313,1112,0,,1,1,,,,,,1510,0,NAC,TS,Custom,,C2,,,,,,,,,,,,,,,,,,,,,,,,,,,,,,,,,,
GSM808314,1115,1,,1,1,,,,,,1802,0,NAC,TS,Custom,,C2,,,,,,,,,,,,,,,,,,,,,,,,,,,,,,,,,,
GSM808315,1121,0,,0,1,,,,,,1498,0,NAC,TS,Custom,,C2,,,,,,,,,,,,,,,,,,,,,,,,,,,,,,,,,,
GSM808316,1129,0,,1,1,,,,,,499,1,NAC,TS,Custom,,C2,,,,,,,,,,,,,,,,,,,,,,,,,,,,,,,,,,
GSM808317,1139,0,,0,1,,,,,,1679,0,NAC,TS,Custom,,C2,,,,,,,,,,,,,,,,,,,,,,,,,,,,,,,,,,
GSM808318,1143,1,,0,0,,,,,,862,1,NAC,TS,Custom,,C2,,,,,,,,,,,,,,,,,,,,,,,,,,,,,,,,,,
GSM808319,1146,1,,0,0,,,,,,283,0,NAC,TS,Custom,,C2,,,,,,,,,,,,,,,,,,,,,,,,,,,,,,,,,,
GSM808320,1149,0,,0,0,,,,,,1534,1,NAC,TS,Custom,,C2,,,,,,,,,,,,,,,,,,,,,,,,,,,,,,,,,,
GSM808321,1154,1,,0,0,,,,,,1190,0,NAC,TS,Custom,,C2,,,,,,,,,,,,,,,,,,,,,,,,,,,,,,,,,,
GSM808322,1159,NA,,NA,0,,,,,,428,1,NAC,TS,Custom,,C2,,,,,,,,,,,,,,,,,,,,,,,,,,,,,,,,,,
GSM808323,1160,0,,0,0,,,,,,1595,0,NAC,TS,Custom,,C2,,,,,,,,,,,,,,,,,,,,,,,,,,,,,,,,,,
GSM808324,1164,1,,0,0,,,,,,1624,0,NAC,TS,Custom,,C2,,,,,,,,,,,,,,,,,,,,,,,,,,,,,,,,,,
GSM808325,1167,1,,1,0,,,,,,1289,1,NAC,TS,Custom,,C2,,,,,,,,,,,,,,,,,,,,,,,,,,,,,,,,,,
GSM808326,1169,0,,0,0,,,,,,315,1,NAC,TS,Custom,,C2,,,,,,,,,,,,,,,,,,,,,,,,,,,,,,,,,,
GSM808327,1170,1,,0,0,,,,,,1190,0,NAC,TS,Custom,,C2,,,,,,,,,,,,,,,,,,,,,,,,,,,,,,,,,,
GSM808328,1173,NA,,NA,0,,,,,,1379,0,NAC,TS,Custom,,C2,,,,,,,,,,,,,,,,,,,,,,,,,,,,,,,,,,
GSM808329,1175,1,,0,0,,,,,,1344,0,NAC,TS,Custom,,C2,,,,,,,,,,,,,,,,,,,,,,,,,,,,,,,,,,
GSM808330,1179,0,,0,0,,,,,,1456,0,NAC,TS,Custom,,C2,,,,,,,,,,,,,,,,,,,,,,,,,,,,,,,,,,
GSM808331,1181,1,,0,0,,,,,,1542,0,NAC,TS,Custom,,C2,,,,,,,,,,,,,,,,,,,,,,,,,,,,,,,,,,
GSM808332,1183,1,,0,0,,,,,,1456,0,NAC,TS,Custom,,C2,,,,,,,,,,,,,,,,,,,,,,,,,,,,,,,,,,
GSM808333,1185,1,,0,0,,,,,,1322,0,NAC,TS,Custom,,C2,,,,,,,,,,,,,,,,,,,,,,,,,,,,,,,,,,
GSM808334,1188,0,,0,0,,,,,,1318,0,NAC,TS,Custom,,C2,,,,,,,,,,,,,,,,,,,,,,,,,,,,,,,,,,
GSM808335,1191,1,,0,0,,,,,,1238,0,NAC,TS,Custom,,C2,,,,,,,,,,,,,,,,,,,,,,,,,,,,,,,,,,
GSM808336,1192,0,,NA,1,,,,,,1311,0,NAC,TS,Custom,,C2,,,,,,,,,,,,,,,,,,,,,,,,,,,,,,,,,,
GSM808337,1193,1,,0,0,,,,,,1425,0,NAC,TS,Custom,,C2,,,,,,,,,,,,,,,,,,,,,,,,,,,,,,,,,,
GSM808338,1194,1,,0,0,,,,,,636,1,NAC,TS,Custom,,C2,,,,,,,,,,,,,,,,,,,,,,,,,,,,,,,,,,
GSM808339,1197,1,,0,0,,,,,,1050,0,NAC,TS,Custom,,C2,,,,,,,,,,,,,,,,,,,,,,,,,,,,,,,,,,
GSM808340,1199,0,,0,0,,,,,,274,1,NAC,TS,Custom,,C2,,,,,,,,,,,,,,,,,,,,,,,,,,,,,,,,,,
GSM808341,1200,1,,0,0,,,,,,1111,1,NAC,TS,Custom,,C2,,,,,,,,,,,,,,,,,,,,,,,,,,,,,,,,,,
GSM808342,1203,1,,0,0,,,,,,1303,1,NAC,TS,Custom,,C2,,,,,,,,,,,,,,,,,,,,,,,,,,,,,,,,,,
GSM808343,1206,1,,0,0,,,,,,481,1,NAC,TS,Custom,,C2,,,,,,,,,,,,,,,,,,,,,,,,,,,,,,,,,,
GSM808344,1219,1,,0,0,,,,,,1183,0,NAC,TS,Custom,,C2,,,,,,,,,,,,,,,,,,,,,,,,,,,,,,,,,,
GSM808345,1221,1,,1,0,,,,,,644,1,NAC,TS,Custom,,C2,,,,,,,,,,,,,,,,,,,,,,,,,,,,,,,,,,
GSM808346,1222,0,,1,0,,,,,,1148,0,NAC,TS,Custom,,C2,,,,,,,,,,,,,,,,,,,,,,,,,,,,,,,,,,
GSM808347,1225,1,,0,0,,,,,,1332,0,NAC,TS,Custom,,C2,,,,,,,,,,,,,,,,,,,,,,,,,,,,,,,,,,
GSM808348,1226,1,,0,0,,,,,,1272,0,NAC,TS,Custom,,C2,,,,,,,,,,,,,,,,,,,,,,,,,,,,,,,,,,
GSM808349,1230,1,,0,0,,,,,,180,1,NAC,TS,Custom,,C2,,,,,,,,,,,,,,,,,,,,,,,,,,,,,,,,,,
GSM808350,1231,1,,0,0,,,,,,1251,0,NAC,TS,Custom,,C2,,,,,,,,,,,,,,,,,,,,,,,,,,,,,,,,,,