[
["index.html", "Integration and Alternatives Chapter 1 Forward Accessing the Data Summary Statistics", " Integration and Alternatives Richard Bownes 2019-07-10 Chapter 1 Forward Integration of disparate on-treatment chemo and endocrine therapy is a valuable target in breast cancer research. Increasing the frequency of low occurrence events and minority subgroups helps to better understand and build models off rarer samples, and allows for the cross treatment examination of expression level changes. A fundamental understanding of the differences, or lack of differences present in different types of therapy is lacking in the corpus of research from a transcriptional and bioinformatics approach. This study seeks to identify the best method to integrate heterogeneous data into larger, more powerful cohorts to conduct this work. I will NOT be taking every possible approach to integration that is possible, there are far too many alternatives and far too little time. I will outline a few prominent confounding factors that hinders the normal integration of this type of data, variables including the processing platform, treatment status of the sample, treatment type and the intrinsic subtype composition of the data sets. For each of these factors I will present a method for rationally combining the data and evaluating if the end result has damaged the underlying biological information, and a summary on the results. Lastly, I will offer an alternative solution should these all prove nonviable and a description of what this means for research going forward. Accessing the Data We have five data sets to contend with containing the valuable matched pre/on-treatment samples, 3 endocrine therapy, 2 chemo therapy. Links to the publicly Endocrine Therapy Data set 1 (E1) GSE59515 385 Total Samples Pre-Treatment, two weeks on treatment, three months and longer term samples. Patients treated with aromatase inhibitors (anastrozole, letrozol) Combined Illumina HT-12v4 BeadChips (GPL10558) and Affymetrix U133A GeneChips (GPL96) Data set 2 (E2) GSE20181 176 Total Samples Pre-Treatment, 10-14 days on treatment, and 90 days on treatment. Aromatase inhibitors (letrozol) Affymetrix Human Genome U133A Array (GPL96) Data set 3 (E3) GSE87411 218 Total Samples Pre-Treatment and 2-4 weeks on treatment. Treatment with anastrozole, exemestane, or letrozole. None responsive patients triaged to NAC. Agilent-014850 Whole Human Genome Microarray 4x44K G4112F Chemotherapy Data set 4 (C1) GSE122630 93 Samples Pre-Treatment, two weeks, mid chemo and surgical samples. Patients were primarily treated with three cycles of FEC and Docetaxel with Herceptin where appropriate. Three patients received Paclitaxel, one patient received additional Carboplatin, one patient received Epi-Cyclophosphamide and Paclitaxel, and one patient received Docetaxel and Cyclophosphamide. Ion Ampliseq Data set 5 (C2) GSE32603 248 Total Samples Pre-Treatment, 24-72 hours post treatment and resection samples. Treated with anthracycline, followed by taxane prior to surgery. UCSF/HAQQLAB_Human_40986_ISPY Summary Statistics The data sets contain Pre-Treatment Samples (PT), Surgical Samples (TS) and either one or two on-treatment samples (T-On, early on-treatment, TM, mid-treatment). The following table highlights the numbers at each time points per dataset and their sums. Data-Set Pre-Treatment Early On-Treatment Late On-Treatment Surgical Sample Total E1 131 110 X 132 373 E2 58 58 X 60 176 E3 109 97 12 X 218 C1 34 12 24 25 95 C2 141 45 X 62 248 — — — — — — Total 473 322 36 279 1110 The raw annotation for the five datasets are very divergent in terms of labelling and handling of categorical variables. I have spent a lot of time handling all of the variations and combining them/filtering them into one cohesive annotation file. read.csv(&quot;data/Annotation/annotationST.csv&quot;, header = TRUE, row.names = &quot;Row.names&quot;) %&gt;% dplyr::select(-c(&quot;X.1&quot;)) %&gt;% as_tibble() %&gt;% arrange(X) %&gt;% head() ## # A tibble: 6 x 32 ## X Sample.ID Patient.ID ER.Allred PR.Allred HER2.Status Response ## &lt;int&gt; &lt;fct&gt; &lt;fct&gt; &lt;int&gt; &lt;int&gt; &lt;fct&gt; &lt;int&gt; ## 1 1 X2.1 2 7 4 Unknown 1 ## 2 2 X2.2 2 8 0 &quot;&quot; 1 ## 3 3 X2.3 2 7 0 &quot;&quot; 1 ## 4 4 X6.1 6 8 8 Unknown 1 ## 5 5 X6.2 6 8 5 &quot;&quot; 1 ## 6 6 X6.3 6 8 5 &quot;&quot; 1 ## # … with 25 more variables: Nodal.Status &lt;int&gt;, Grade.At.Diagnosis &lt;int&gt;, ## # T &lt;fct&gt;, N &lt;fct&gt;, M &lt;fct&gt;, RFS &lt;dbl&gt;, Recurrence &lt;fct&gt;, ## # Treatment.Type &lt;fct&gt;, Biopsy.Time &lt;fct&gt;, Platform &lt;fct&gt;, DS &lt;fct&gt;, ## # ER_Status &lt;int&gt;, PR_Status &lt;int&gt;, Study.ID &lt;int&gt;, smcod1 &lt;fct&gt;, ## # scmod2 &lt;fct&gt;, pam50 &lt;fct&gt;, ssp2006 &lt;fct&gt;, ssp2003 &lt;fct&gt;, IC10 &lt;fct&gt;, ## # MammaPrint_risk &lt;int&gt;, MammaPrint_score &lt;dbl&gt;, rorS_risk &lt;fct&gt;, ## # rorS_score &lt;dbl&gt;, ID &lt;fct&gt; "],
["exploratory-data-analysis-baseline.html", "Chapter 2 Exploratory Data Analysis | Baseline", " Chapter 2 Exploratory Data Analysis | Baseline After quantile normalization of the five data sets the distributions are nicely combined, and the ranking of genes in each dataset is maintained. Obviously this is a not a guarantee of anything, but it does mean that the data are all on the same scale prior to integration efforts. Kernel density is affected by dataset size. Prior to integration the five data sets are clearly seperated. PCA shows distinct groupings of each dataset (colored by study). This is one of the effects we are looking to minimize before future analysis as these inter group differences may oclude the more subtle underlying biological changes. The datasets do not share the same gene lists, or probe id’s. Left joining to maintain the most overlapping genes would have resulted in the blue line, which would have resulted in prohivatibly small gene list for scoring/subtyping. Instead I have decided to employ a full join and retain the non-shared genes as NA’s that can be omitted later. The vertical line indicates the gene count where standard genefu function calls fail do to too many missing genes using left joins only. Looking at the most variable genes across all 5 data sets we see the heatmap below agrees with the PCA of all components, that there is disctinct seperation between the datasets based on the study. Heat map of the 500 most variable genes colored with annotation of dataset, biopsy time and treatment type. To identify a “baseline” in the subtypes of the samples, below are plots of different subtyping and prognostic tests. The first polar diagram shows the composition of each the aggregate data in terms of each test, as well as the “completeness” of the data. ( Base_line &lt;- annotation %&gt;% dplyr::select(Sample.ID, Patient.ID, Treatment.Type, Biopsy.Time, DS, smcod1, scmod2, pam50, ssp2006, ssp2003, IC10, MammaPrint_risk, rorS_risk) %&gt;% gather(key = key, value = value, -Sample.ID, -Patient.ID, -Treatment.Type, -Biopsy.Time, -DS) %&gt;% ggplot(aes(x = Patient.ID, y = Biopsy.Time, fill = value)) + geom_tile() + facet_wrap(~key) + scale_fill_manual(values = c(&quot;green&quot;,&quot;red&quot;,&quot;red&quot;,&quot;blue&quot;,&quot;red&quot;,&quot;green&quot;,&quot;pink&quot;,&quot;pink&quot;,&quot;red&quot;,&quot;darkorange3&quot;,&quot;slateblue4&quot;, &quot;darkseagreen&quot;,&quot;deeppink4&quot;,&quot;azure3&quot;,&quot;darkorange4&quot;,&quot;khaki1&quot;,&quot;dodgerblue4&quot;,&quot;goldenrod3&quot;,&quot;plum3&quot;,&quot;yellow&quot;,&quot;green&quot;,&quot;darkblue&quot;,&quot;lightblue&quot;,&quot;green&quot;)) + coord_polar() + theme_pander() + theme(legend.position = &quot;none&quot;, axis.text = element_blank()) + scale_y_discrete(limits = c(&quot;TP&quot;, &quot;T-On&quot;, &quot;TM&quot;, &quot;TS&quot;)) ) The Pam50 subtyping test is highlighted here to show more clearly the general trend in the data. At the center of the circle is the earliest on treatment sample. The outside of the ring is the end/latest sampled biopsy, and the color represents the intrinsic subtype according to Pam50. What is clearly shown is a downgrading of tumours from LumB/Basal to normal and LumA with treatment time, additionally there are more samples at the earliest and latest sampled time points. Because these values are caluclated off the relateive expression of genes, integration may alter the comparative values and change the allocated subtypes. ( Pam50 &lt;- annotation %&gt;% dplyr::select(Sample.ID, Patient.ID, Treatment.Type, Biopsy.Time, DS, pam50) %&gt;% gather(key = key, value = value, -Sample.ID, -Patient.ID, -Treatment.Type, -Biopsy.Time, -DS) %&gt;% ggplot(aes(x = Patient.ID, y = Biopsy.Time, fill = value)) + geom_tile() + scale_fill_manual(values = c(&quot;Red&quot;, &quot;Pink&quot;, &quot;DarkBlue&quot;, &quot;LightBlue&quot;, &quot;Green&quot;)) + coord_polar() + theme_pander() + theme(axis.text = element_blank(), legend.position = &quot;none&quot;) + scale_y_discrete(limits = c(&quot;TP&quot;, &quot;T-On&quot;, &quot;TM&quot;, &quot;TS&quot;)) ) Lastly, continuous risk scores, MammaPrint and rorS, were taken, and the change in continuous risk is modelled here with smoothed regression lines for each dataset to illustrate comparative risk over time and between datasets. As these values are also calculated from the available expression, if these trends change it could be viewed as negative distortion of the data. TP &lt;- annotation %&gt;% dplyr::filter(Biopsy.Time == &quot;TP&quot;) TOn &lt;- annotation %&gt;% dplyr::filter(Biopsy.Time == &quot;T-On&quot;) ( Pre_on_Cscore &lt;- dplyr::left_join(TP, TOn, &quot;Patient.ID&quot;) %&gt;% ggplot(aes(x = MammaPrint_score.x, y = MammaPrint_score.y, color = DS.x)) + xlab(&quot;Pretreatment MammaPrint score&quot;) + ylab(&quot;On-Treatment MammaPrint score&quot;) + labs(color = &quot;Dataset&quot;) + geom_point() + geom_smooth() + theme_pander() ) "],
["platform-integration.html", "Chapter 3 Platform integration", " Chapter 3 Platform integration The most logical starting place for dataset integration is to integrate based on the cohort. These are all fundamentally different experiments, with different staff, institutes, machinery, collection methods, processing platforms, year of collection, there are even factors so benign, like elevation that could in some way make a difference that are inevitably going to differ. A factor that by default encompasses many of these elements is the “dataset” as it is a resonable assumption that two samples collected for one cohort are collected under more similiar external conditions than two samples from different datasets. After combat correction for batch with no covariate for any outside feature it is possible to see slight more variation in the gene expression across each dataset. Perfectly uniform distribution of gene expression is not normal, as genes tend to be of comparatively high, or low expression, and expression data is very often “tailed” because of this. From that perspective this appears more “correct” than just quantile normalization and full joining the data. gp5_for_int &lt;- gp5 %&gt;% mutate_all(~ifelse(is.na(.x), mean(.x, na.rm = TRUE), .x)) row.names(gp5_for_int) &lt;- row.names(gp5) DSIntegrated5 &lt;- integration_fun(gp5_for_int, annotation[, c(2, 18)]) DataDist5DS_Int &lt;- DSIntegrated5 %&gt;% mutate(genes = row.names(.)) %&gt;% gather(key = key, value = value, -genes) %&gt;% mutate(DS = rep(c(1,2,3,4,5), c(nrow(DSIntegrated5)*nrow(annotation %&gt;% filter(DS == &quot;C1&quot;)), nrow(DSIntegrated5)*nrow(annotation %&gt;% filter(DS == &quot;C2&quot;)), nrow(DSIntegrated5)*nrow(annotation %&gt;% filter(DS == &quot;E3&quot;)), nrow(DSIntegrated5)*nrow(annotation %&gt;% filter(DS == &quot;E1&quot;)), nrow(DSIntegrated5)*nrow(annotation %&gt;% filter(DS == &quot;E2&quot;))))) %&gt;% na.omit %&gt;% ggplot(aes(value, color = as.factor(DS))) + geom_density() + xlim(-50,100) PCA results of this are less obvious to interpret. There now appears to be similarity of the expression (according to explained variance) between some of the Edinburgh Letrozole (E1) and I-SPY (C2) NAC samples, but not with any other dataset. Additionally, both the E1 and E3 cohorts now seem to be split in variance space, but this cannot be explained through phenotypic information. Heatmapping the 500 most variable genes across these samples agrees with the PCA results, there is some mingling of the E1/C2 samples, but the batch effect of platform/cohort is still strong. Heat map of the 500 most variable genes colored with annotation of dataset, biopsy time and treatment type. When trying to design a way of illustrating intrinsic/subtype changes happening on a per-sample basis the breadth of data and the ordering is hard to visualize succintly, but I will make a few iterations of this diagram to highlight the meaningful data. If no change was observed, the diagram below would be 32 circles with mono-chromatic singular lines from the circles center to edge. Any deviance from that pattern indicates that the underlying expression values were altered to an extent that influences the calculated subtype/prognostic group for the sample. What is very clearly evident then from the large observed randomness of these polar plots is that the changes are systematic, and significant, and that adjusting for platform has completely altered the landscape of the expression profile/subtype appearance of each sample. ( ST_by_time_change &lt;- annotation %&gt;% dplyr::select(Sample.ID, Patient.ID, Treatment.Type, Biopsy.Time, DS, smcod1, scmod2, pam50, ssp2006, ssp2003, IC10, MammaPrint_risk, rorS_risk) %&gt;% left_join(., BC_Subtype_distortion %&gt;% dplyr::select(-MammaPrint_score, -rorS_score), by = &quot;Sample.ID&quot;) %&gt;% gather(key = key, value = value, -Sample.ID, -Patient.ID, -Treatment.Type, -Biopsy.Time, -DS, -ID) %&gt;% mutate(key = gsub(&quot;\\\\.[xy]&quot;, &quot;&quot;, .$key)) %&gt;% mutate(Int_status = rep(c(0,1), c(8792, 8792))) %&gt;% #filter(Biopsy.Time == &quot;TP&quot;) %&gt;% ggplot(aes(x = Patient.ID, y = as.factor(Int_status), fill = value)) + geom_tile() + facet_grid(Biopsy.Time~key) + scale_fill_manual(values = c(&quot;green&quot;,&quot;red&quot;,&quot;red&quot;,&quot;blue&quot;,&quot;red&quot;,&quot;green&quot;,&quot;pink&quot;,&quot;pink&quot;,&quot;red&quot;,&quot;darkorange3&quot;,&quot;slateblue4&quot;, &quot;darkseagreen&quot;,&quot;deeppink4&quot;,&quot;azure3&quot;,&quot;darkorange4&quot;,&quot;khaki1&quot;,&quot;dodgerblue4&quot;,&quot;goldenrod3&quot;,&quot;plum3&quot;,&quot;yellow&quot;,&quot;green&quot;,&quot;darkblue&quot;,&quot;lightblue&quot;,&quot;green&quot;)) + coord_polar() + theme_pander() + theme(legend.position = &quot;none&quot;, axis.text = element_blank(), axis.ticks = element_blank()) ) ggsave(&quot;conserved_figures/02/ST_by_time_change.png&quot;, ST_by_time_change) To make this more visually meaningful, below is just the pre-treatment samples from all five cohorts, organized by their subtype pre integration on the bottom row, and the new calculated subtype on top. DF_order &lt;- annotation %&gt;% dplyr::select(Sample.ID, Patient.ID, Treatment.Type, Biopsy.Time, DS, smcod1, scmod2, pam50, ssp2006, ssp2003, IC10, MammaPrint_risk, rorS_risk) %&gt;% left_join(., BC_Subtype_distortion %&gt;% dplyr::select(-MammaPrint_score, -rorS_score), by = &quot;Sample.ID&quot;) %&gt;% gather(key = key, value = value, -Sample.ID, -Patient.ID, -Treatment.Type, -Biopsy.Time, -DS, -ID) %&gt;% mutate(key = gsub(&quot;\\\\.[xy]&quot;, &quot;&quot;, .$key)) %&gt;% mutate(Int_status = rep(c(0,1), c(8792, 8792))) %&gt;% filter(Biopsy.Time == &quot;TP&quot; &amp; key == &quot;pam50&quot; &amp; Int_status == 0) %&gt;% unique() %&gt;% arrange(value) %&gt;% dplyr::select(Patient.ID) ( pam_50_t1 &lt;- annotation %&gt;% dplyr::select(Sample.ID, Patient.ID, Treatment.Type, Biopsy.Time, DS, smcod1, scmod2, pam50, ssp2006, ssp2003, IC10, MammaPrint_risk, rorS_risk) %&gt;% left_join(., BC_Subtype_distortion %&gt;% dplyr::select(-MammaPrint_score, -rorS_score), by = &quot;Sample.ID&quot;) %&gt;% gather(key = key, value = value, -Sample.ID, -Patient.ID, -Treatment.Type, -Biopsy.Time, -DS, -ID) %&gt;% mutate(key = gsub(&quot;\\\\.[xy]&quot;, &quot;&quot;, .$key)) %&gt;% mutate(Int_status = rep(c(0,1), c(8792, 8792))) %&gt;% filter(Biopsy.Time == &quot;TP&quot; &amp; key == &quot;pam50&quot; &amp; Patient.ID %in% DF_order$Patient.ID) %&gt;% ggplot(aes(x = Patient.ID, y = as.factor(Int_status), fill = value)) + geom_tile() + scale_x_discrete(limits = rev(DF_order$Patient.ID)) + scale_fill_manual(values = c(&quot;red&quot;, &quot;pink&quot;, &quot;Darkblue&quot;, &quot;lightblue&quot;, &quot;green&quot;)) ) ggsave(&quot;conserved_figures/02/pam_50_t1.png&quot;) As well as these categorical subtypes, I have also calculated the continuous risk scores for each sample pre/post integration and plotted them against a reference X = Y line to show the deviation. The smoothed loess regression lines show ninety five percent confidence intervals which help to illustrate and reinforce the message that the integration has fundamentally changes the expression profiles of these samples, and they are significantly higher/lower than their pre-integration counter parts. ( mammaprint_difference &lt;- annotation %&gt;% dplyr::select(Sample.ID, Patient.ID, Treatment.Type, Biopsy.Time, DS, MammaPrint_score, rorS_score) %&gt;% left_join(., BC_Subtype_distortion %&gt;% dplyr::select(Sample.ID, MammaPrint_score, rorS_score), by = &quot;Sample.ID&quot;) %&gt;% ggplot(aes(x = MammaPrint_score.x, y = MammaPrint_score.y)) + geom_point(mapping = aes(color = DS)) + geom_smooth(mapping = aes(color = DS)) + geom_point(data = reference, aes(x = reference$x, y = reference$y)) + xlim(-.89, .75) + ylim(-0.6, 0.6) ) The same calculations and diagramming has been performed for the Pam50 rorS continuous risk values, these are highlighted below, and display similar trends away from the their pre-integration values. ( rorS_difference &lt;- annotation %&gt;% dplyr::select(Sample.ID, Patient.ID, Treatment.Type, Biopsy.Time, DS, MammaPrint_score, rorS_score) %&gt;% left_join(., BC_Subtype_distortion %&gt;% dplyr::select(Sample.ID, MammaPrint_score, rorS_score), by = &quot;Sample.ID&quot;) %&gt;% ggplot(aes(x = rorS_score.x, y = rorS_score.y)) + geom_point(mapping = aes(color = DS)) + geom_smooth(mapping = aes(color = DS)) + geom_point(data = reference2, aes(x = reference2$x, y = reference2$y)) ) From the above data it appears that there are fundamental differences in the expression values of pre and post integration data when accounting solely for the study/cohort/platform of origin. In the next few pages I will explore the impact of adding covariates for the on-treatment time, the type of treatment being administered, and lastly the composition of pre-integration molecular subtypes. "],
["treatment-status.html", "Chapter 4 Treatment Status", " Chapter 4 Treatment Status Correction for the batch alone was insufficent for combining the studies in a non-detrimental way, next I will explore the effects of adding a covariate for the treatment status of each sample (Pre-treatment, early on-treatment, late on-treatment and resection sample). The hypothesis being that the changes in gene expression caused by the treatment, either aromatase inhibtors or chemotherapy, and the length of time on that treatment are causing significant changes that must be accounted for during integration in order to preserve the biological identity of each sample, but still be able to appropriatly pool the data. Below is the kernel density distributed data for the five datasets, as with batch correction, it is reassuring that some of the variation in gene expression has returned, but that the distributions are similiar in size, magnitude and are significantly overlapping. PCA diagram of this date below shows a similar pattern of overlap between E1 and C2, but now four of the five datasets are very clearly fracturing. Once again these groups are not explainable by any readily available clinical or phenotypic information. The heatmap of the 500 most variable genes shows the same distribution of datasets, with annotation for trial described response, treatment type, and treatement status. Heat map of the 500 most variable genes colored with annotation of dataset, biopsy time and treatment type. In replicating this diagram from the first chapter, similar discordance is observed between the pre/post integrated samples, regardless of time or test. ( ST_by_time_change &lt;- annotation %&gt;% dplyr::select(Sample.ID, Patient.ID, Treatment.Type, Biopsy.Time, DS, smcod1, scmod2, pam50, ssp2006, ssp2003, IC10, MammaPrint_risk, rorS_risk) %&gt;% left_join(., BC_Subtype_distortion %&gt;% dplyr::select(-MammaPrint_score, -rorS_score), by = &quot;Sample.ID&quot;) %&gt;% gather(key = key, value = value, -Sample.ID, -Patient.ID, -Treatment.Type, -Biopsy.Time, -DS, -ID) %&gt;% mutate(key = gsub(&quot;\\\\.[xy]&quot;, &quot;&quot;, .$key)) %&gt;% mutate(Int_status = rep(c(0,1), c(8792, 8792))) %&gt;% #filter(Biopsy.Time == &quot;TP&quot;) %&gt;% ggplot(aes(x = Patient.ID, y = as.factor(Int_status), fill = value)) + geom_tile() + facet_grid(Biopsy.Time~key) + scale_fill_manual(values = c(&quot;green&quot;,&quot;red&quot;,&quot;red&quot;,&quot;blue&quot;,&quot;red&quot;,&quot;green&quot;,&quot;pink&quot;,&quot;pink&quot;,&quot;red&quot;,&quot;darkorange3&quot;,&quot;slateblue4&quot;, &quot;darkseagreen&quot;,&quot;deeppink4&quot;,&quot;azure3&quot;,&quot;darkorange4&quot;,&quot;khaki1&quot;,&quot;dodgerblue4&quot;,&quot;goldenrod3&quot;,&quot;plum3&quot;,&quot;yellow&quot;,&quot;green&quot;,&quot;darkblue&quot;,&quot;lightblue&quot;,&quot;green&quot;)) + coord_polar() + theme_pander() + theme(legend.position = &quot;none&quot;, axis.text = element_blank(), axis.ticks = element_blank()) ) Here is the close up of the pre-treatment Pam50 subtypes again to illustrate just one example more closely. Again, while a specific intrinsic subtype is most likely to stay the same, a large portion of samples are categorically different, and there is not a perceivable trend. DF_order &lt;- annotation %&gt;% dplyr::select(Sample.ID, Patient.ID, Treatment.Type, Biopsy.Time, DS, smcod1, scmod2, pam50, ssp2006, ssp2003, IC10, MammaPrint_risk, rorS_risk) %&gt;% left_join(., BC_Subtype_distortion %&gt;% dplyr::select(-MammaPrint_score, -rorS_score), by = &quot;Sample.ID&quot;) %&gt;% gather(key = key, value = value, -Sample.ID, -Patient.ID, -Treatment.Type, -Biopsy.Time, -DS, -ID) %&gt;% mutate(key = gsub(&quot;\\\\.[xy]&quot;, &quot;&quot;, .$key)) %&gt;% mutate(Int_status = rep(c(0,1), c(8792, 8792))) %&gt;% filter(Biopsy.Time == &quot;TP&quot; &amp; key == &quot;pam50&quot; &amp; Int_status == 0) %&gt;% unique() %&gt;% arrange(value) %&gt;% dplyr::select(Patient.ID) ( pam_50_t1 &lt;- annotation %&gt;% dplyr::select(Sample.ID, Patient.ID, Treatment.Type, Biopsy.Time, DS, smcod1, scmod2, pam50, ssp2006, ssp2003, IC10, MammaPrint_risk, rorS_risk) %&gt;% left_join(., BC_Subtype_distortion %&gt;% dplyr::select(-MammaPrint_score, -rorS_score), by = &quot;Sample.ID&quot;) %&gt;% gather(key = key, value = value, -Sample.ID, -Patient.ID, -Treatment.Type, -Biopsy.Time, -DS, -ID) %&gt;% mutate(key = gsub(&quot;\\\\.[xy]&quot;, &quot;&quot;, .$key)) %&gt;% mutate(Int_status = rep(c(0,1), c(8792, 8792))) %&gt;% filter(Biopsy.Time == &quot;TP&quot; &amp; key == &quot;pam50&quot; &amp; Patient.ID %in% DF_order$Patient.ID) %&gt;% ggplot(aes(x = Patient.ID, y = as.factor(Int_status), fill = value)) + geom_tile() + scale_x_discrete(limits = rev(DF_order$Patient.ID)) + scale_fill_manual(values = c(&quot;red&quot;, &quot;pink&quot;, &quot;Darkblue&quot;, &quot;lightblue&quot;, &quot;green&quot;)) ) ggsave(&quot;conserved_figures/03/pam_50_t1.png&quot;) Mammaprint scoring tells the same story, samples are signficantly (according to ninety five percent confidence intervals) different post integration when compared to pre. ( mammaprint_difference &lt;- annotation %&gt;% dplyr::select(Sample.ID, Patient.ID, Treatment.Type, Biopsy.Time, DS, MammaPrint_score, rorS_score) %&gt;% left_join(., BC_Subtype_distortion %&gt;% dplyr::select(Sample.ID, MammaPrint_score, rorS_score), by = &quot;Sample.ID&quot;) %&gt;% ggplot(aes(x = MammaPrint_score.x, y = MammaPrint_score.y)) + geom_point(mapping = aes(color = DS)) + geom_smooth(mapping = aes(color = DS)) + geom_point(data = reference, aes(x = reference$x, y = reference$y)) + xlim(-.89, .75) + ylim(-0.6, 0.6) ) This result is less pronounced in the rorS risk value, but is still present. ( rorS_difference &lt;- annotation %&gt;% dplyr::select(Sample.ID, Patient.ID, Treatment.Type, Biopsy.Time, DS, MammaPrint_score, rorS_score) %&gt;% left_join(., BC_Subtype_distortion %&gt;% dplyr::select(Sample.ID, MammaPrint_score, rorS_score), by = &quot;Sample.ID&quot;) %&gt;% ggplot(aes(x = rorS_score.x, y = rorS_score.y)) + geom_point(mapping = aes(color = DS)) + geom_smooth(mapping = aes(color = DS)) + geom_point(data = reference2, aes(x = reference2$x, y = reference2$y)) ) ggsave(&quot;conserved_figures/03/rorS_difference.png&quot;) "],
["treatment-type.html", "Chapter 5 Treatment Type", " Chapter 5 Treatment Type So far, neither treatment time or batch were optimal for combat correction, now the type of treatment will be used a covariate for integrating the batches. Here I am assuming that the largest changes in observed, or largest starting differences are due to the characteristics of patient that mandated specific treatment types. Meaning, AI treated samples would potentially be more similar to other AI treated, due to ER/PR expression, and less like chemotherapy samples. The clincial factors describing each tumour are then summarized in the treatment type and are a legitimate factor for integration. Again the distributions show overlap of the datasets, and increased variance in the highly/lowly expressed genes. gp5_for_int &lt;- gp5 %&gt;% mutate_all(~ifelse(is.na(.x), mean(.x, na.rm = TRUE), .x)) row.names(gp5_for_int) &lt;- row.names(gp5) Treatment_type_Integrated5 &lt;- integration_fun_amended(gp5_for_int, annotation[, c(2, 15, 18)]) TT_type_5DS_Int &lt;- Treatment_type_Integrated5 %&gt;% mutate(genes = row.names(.)) %&gt;% gather(key = key, value = value, -genes) %&gt;% mutate(DS = rep(c(1,2,3,4,5), c(nrow(DSIntegrated5)*nrow(annotation %&gt;% filter(DS == &quot;C1&quot;)), nrow(DSIntegrated5)*nrow(annotation %&gt;% filter(DS == &quot;C2&quot;)), nrow(DSIntegrated5)*nrow(annotation %&gt;% filter(DS == &quot;E3&quot;)), nrow(DSIntegrated5)*nrow(annotation %&gt;% filter(DS == &quot;E1&quot;)), nrow(DSIntegrated5)*nrow(annotation %&gt;% filter(DS == &quot;E2&quot;))))) %&gt;% na.omit %&gt;% ggplot(aes(value, color = as.factor(DS))) + geom_density() + xlim(-50,100) PCA however is showing remarkably more discrete clusters than even the pre-integration samples. In addition the datasets are fractured again into unexplainable subgroups (for cohort E1 and C2). Heatmap of the 500 most variable genes does however have one very interesting new dichotomy. The left side of the heatmap is visually enriched for the responsive (study derived) samples. This is especially interesting as the vector of response is NOT uniform between the studies. Heat map of the 500 most variable genes colored with annotation of dataset, biopsy time and treatment type. This diagram is once again quite random and chaotic, indicating systematic changes in the expression levels between pre/post integration. We’ll examine one facet more closely again for a better look. ( ST_by_time_change &lt;- annotation %&gt;% dplyr::select(Sample.ID, Patient.ID, Treatment.Type, Biopsy.Time, DS, smcod1, scmod2, pam50, ssp2006, ssp2003, IC10, MammaPrint_risk, rorS_risk) %&gt;% left_join(., BC_Subtype_distortion %&gt;% dplyr::select(-MammaPrint_score, -rorS_score), by = &quot;Sample.ID&quot;) %&gt;% gather(key = key, value = value, -Sample.ID, -Patient.ID, -Treatment.Type, -Biopsy.Time, -DS, -ID) %&gt;% mutate(key = gsub(&quot;\\\\.[xy]&quot;, &quot;&quot;, .$key)) %&gt;% mutate(Int_status = rep(c(0,1), c(8792, 8792))) %&gt;% #filter(Biopsy.Time == &quot;TP&quot;) %&gt;% ggplot(aes(x = Patient.ID, y = as.factor(Int_status), fill = value)) + geom_tile() + facet_grid(Biopsy.Time~key) + scale_fill_manual(values = c(&quot;green&quot;,&quot;red&quot;,&quot;red&quot;,&quot;blue&quot;,&quot;red&quot;,&quot;green&quot;,&quot;pink&quot;,&quot;pink&quot;,&quot;red&quot;,&quot;darkorange3&quot;,&quot;slateblue4&quot;, &quot;darkseagreen&quot;,&quot;deeppink4&quot;,&quot;azure3&quot;,&quot;darkorange4&quot;,&quot;khaki1&quot;,&quot;dodgerblue4&quot;,&quot;goldenrod3&quot;,&quot;plum3&quot;,&quot;yellow&quot;,&quot;green&quot;,&quot;darkblue&quot;,&quot;lightblue&quot;,&quot;green&quot;)) + coord_polar() + theme_pander() + theme(legend.position = &quot;none&quot;, axis.text = element_blank(), axis.ticks = element_blank()) ) This is the “best” (least discordant) graph yet of the intrinsic subtypes! It is quite clear that the majority of samples are staying the same, except in the case of LumB samples where a large fraction are being downgraded to lumA. Never the less, this covariate does seem to have reduced the discordance produced by integration to a degree when looking at the categorical outcomes. DF_order &lt;- annotation %&gt;% dplyr::select(Sample.ID, Patient.ID, Treatment.Type, Biopsy.Time, DS, smcod1, scmod2, pam50, ssp2006, ssp2003, IC10, MammaPrint_risk, rorS_risk) %&gt;% left_join(., BC_Subtype_distortion %&gt;% dplyr::select(-MammaPrint_score, -rorS_score), by = &quot;Sample.ID&quot;) %&gt;% gather(key = key, value = value, -Sample.ID, -Patient.ID, -Treatment.Type, -Biopsy.Time, -DS, -ID) %&gt;% mutate(key = gsub(&quot;\\\\.[xy]&quot;, &quot;&quot;, .$key)) %&gt;% mutate(Int_status = rep(c(0,1), c(8792, 8792))) %&gt;% filter(Biopsy.Time == &quot;TP&quot; &amp; key == &quot;pam50&quot; &amp; Int_status == 0) %&gt;% unique() %&gt;% arrange(value) %&gt;% dplyr::select(Patient.ID) ( pam_50_t1 &lt;- annotation %&gt;% dplyr::select(Sample.ID, Patient.ID, Treatment.Type, Biopsy.Time, DS, smcod1, scmod2, pam50, ssp2006, ssp2003, IC10, MammaPrint_risk, rorS_risk) %&gt;% left_join(., BC_Subtype_distortion %&gt;% dplyr::select(-MammaPrint_score, -rorS_score), by = &quot;Sample.ID&quot;) %&gt;% gather(key = key, value = value, -Sample.ID, -Patient.ID, -Treatment.Type, -Biopsy.Time, -DS, -ID) %&gt;% mutate(key = gsub(&quot;\\\\.[xy]&quot;, &quot;&quot;, .$key)) %&gt;% mutate(Int_status = rep(c(0,1), c(8792, 8792))) %&gt;% filter(Biopsy.Time == &quot;TP&quot; &amp; key == &quot;pam50&quot; &amp; Patient.ID %in% DF_order$Patient.ID) %&gt;% ggplot(aes(x = Patient.ID, y = as.factor(Int_status), fill = value)) + geom_tile() + scale_x_discrete(limits = rev(DF_order$Patient.ID)) + scale_fill_manual(values = c(&quot;red&quot;, &quot;pink&quot;, &quot;Darkblue&quot;, &quot;lightblue&quot;, &quot;green&quot;)) ) Mammaprint and rorS scores show similarly reduced distance from the pre-integration samples, but the trends are still (with ninety five percent confidence) different. ( mammaprint_difference &lt;- annotation %&gt;% dplyr::select(Sample.ID, Patient.ID, Treatment.Type, Biopsy.Time, DS, MammaPrint_score, rorS_score) %&gt;% left_join(., BC_Subtype_distortion %&gt;% dplyr::select(Sample.ID, MammaPrint_score, rorS_score), by = &quot;Sample.ID&quot;) %&gt;% ggplot(aes(x = MammaPrint_score.x, y = MammaPrint_score.y)) + geom_point(mapping = aes(color = DS)) + geom_smooth(mapping = aes(color = DS)) + geom_point(data = reference, aes(x = reference$x, y = reference$y)) + xlim(-.89, .75) + ylim(-0.6, 0.6) ) ( rorS_difference &lt;- annotation %&gt;% dplyr::select(Sample.ID, Patient.ID, Treatment.Type, Biopsy.Time, DS, MammaPrint_score, rorS_score) %&gt;% left_join(., BC_Subtype_distortion %&gt;% dplyr::select(Sample.ID, MammaPrint_score, rorS_score), by = &quot;Sample.ID&quot;) %&gt;% ggplot(aes(x = rorS_score.x, y = rorS_score.y)) + geom_point(mapping = aes(color = DS)) + geom_smooth(mapping = aes(color = DS)) + geom_point(data = reference2, aes(x = reference2$x, y = reference2$y)) ) "],
["subtype-composition.html", "Chapter 6 Subtype Composition", " Chapter 6 Subtype Composition Subtype scoring is performed through centroid mapping based off the relative expression of genes defined as important for the description of each subtype. These subtypes, like Pam50, have been shown to have clinical relevance and differential prognostic outcomes. The genes selected for this process include known important markers like ESR1 and ERBB2, but also include common proliferation markers like AURKA, MKI67 and PCNA among others. Assuming that the differences in these genes is sufficently modeled by the different subtypes, and that these would be genes of interest to study in the aggregated dataset, using a covariate of transcriptomicly defined subtypes seems a logical possibility for optimal integration. The same pattern is once again observed, overlap, with some additional variance. gp5_for_int &lt;- gp5 %&gt;% mutate_all(~ifelse(is.na(.x), mean(.x, na.rm = TRUE), .x)) row.names(gp5_for_int) &lt;- row.names(gp5) Sub_type_Integrated5 &lt;- integration_fun_amended(gp5_for_int, annotation[, c(2, 24, 18)]) Sub_type_5DS_Int &lt;- Sub_type_Integrated5 %&gt;% mutate(genes = row.names(.)) %&gt;% gather(key = key, value = value, -genes) %&gt;% mutate(DS = rep(c(1,2,3,4,5), c(nrow(DSIntegrated5)*nrow(annotation %&gt;% filter(DS == &quot;C1&quot;)), nrow(DSIntegrated5)*nrow(annotation %&gt;% filter(DS == &quot;C2&quot;)), nrow(DSIntegrated5)*nrow(annotation %&gt;% filter(DS == &quot;E3&quot;)), nrow(DSIntegrated5)*nrow(annotation %&gt;% filter(DS == &quot;E1&quot;)), nrow(DSIntegrated5)*nrow(annotation %&gt;% filter(DS == &quot;E2&quot;))))) %&gt;% na.omit %&gt;% ggplot(aes(value, color = as.factor(DS))) + geom_density() + xlim(-50,100) ggsave(&quot;conserved_figures/05/Sub_type_5DS_Int.png&quot;) PCA once again is seeing fractioning of the starting datasets, into the most groups we have seen yet. However, once again the E1/C2 groups seem to be merging to a degree. So far we have yet to see the “hairball” diagram we would like to see from this sort of correction method. A heatmap of the 500 most variable genes is again all over the place, and up in the air. There are perhaps some pockets of responders, and a high branch of the gene dendrogram looks significatly different to the rest of the diagram, but this is clearly not integrated data. Heat map of the 500 most variable genes colored with annotation of dataset, biopsy time and treatment type. Once again, while I feel this is an important diagram for an overview, it is hard to interpret. Generally however, I would say this has failed to reduce categorical subtype assignment discordance in a meaningful manner. ( ST_by_time_change &lt;- annotation %&gt;% dplyr::select(Sample.ID, Patient.ID, Treatment.Type, Biopsy.Time, DS, smcod1, scmod2, pam50, ssp2006, ssp2003, IC10, MammaPrint_risk, rorS_risk) %&gt;% left_join(., BC_Subtype_distortion %&gt;% dplyr::select(-MammaPrint_score, -rorS_score), by = &quot;Sample.ID&quot;) %&gt;% gather(key = key, value = value, -Sample.ID, -Patient.ID, -Treatment.Type, -Biopsy.Time, -DS, -ID) %&gt;% mutate(key = gsub(&quot;\\\\.[xy]&quot;, &quot;&quot;, .$key)) %&gt;% mutate(Int_status = rep(c(0,1), c(8792, 8792))) %&gt;% #filter(Biopsy.Time == &quot;TP&quot;) %&gt;% ggplot(aes(x = Patient.ID, y = as.factor(Int_status), fill = value)) + geom_tile() + facet_grid(Biopsy.Time~key) + scale_fill_manual(values = c(&quot;green&quot;,&quot;red&quot;,&quot;red&quot;,&quot;blue&quot;,&quot;red&quot;,&quot;green&quot;,&quot;pink&quot;,&quot;pink&quot;,&quot;red&quot;,&quot;darkorange3&quot;,&quot;slateblue4&quot;, &quot;darkseagreen&quot;,&quot;deeppink4&quot;,&quot;azure3&quot;,&quot;darkorange4&quot;,&quot;khaki1&quot;,&quot;dodgerblue4&quot;,&quot;goldenrod3&quot;,&quot;plum3&quot;,&quot;yellow&quot;,&quot;green&quot;,&quot;darkblue&quot;,&quot;lightblue&quot;,&quot;green&quot;)) + coord_polar() + theme_pander() + theme(legend.position = &quot;none&quot;, axis.text = element_blank(), axis.ticks = element_blank()) ) The close up confirms this, HER2, Basal and normal-like tumours seem to have changed less than in previous integration attempts, however the luminals (the largest groups for this cohort) showed marked change toward other subtypes, with a slight trend toward HER2+ (LumB), and Normal (LumA). DF_order &lt;- annotation %&gt;% dplyr::select(Sample.ID, Patient.ID, Treatment.Type, Biopsy.Time, DS, smcod1, scmod2, pam50, ssp2006, ssp2003, IC10, MammaPrint_risk, rorS_risk) %&gt;% left_join(., BC_Subtype_distortion %&gt;% dplyr::select(-MammaPrint_score, -rorS_score), by = &quot;Sample.ID&quot;) %&gt;% gather(key = key, value = value, -Sample.ID, -Patient.ID, -Treatment.Type, -Biopsy.Time, -DS, -ID) %&gt;% mutate(key = gsub(&quot;\\\\.[xy]&quot;, &quot;&quot;, .$key)) %&gt;% mutate(Int_status = rep(c(0,1), c(8792, 8792))) %&gt;% filter(Biopsy.Time == &quot;TP&quot; &amp; key == &quot;pam50&quot; &amp; Int_status == 0) %&gt;% unique() %&gt;% arrange(value) %&gt;% dplyr::select(Patient.ID) ( pam_50_t1 &lt;- annotation %&gt;% dplyr::select(Sample.ID, Patient.ID, Treatment.Type, Biopsy.Time, DS, smcod1, scmod2, pam50, ssp2006, ssp2003, IC10, MammaPrint_risk, rorS_risk) %&gt;% left_join(., BC_Subtype_distortion %&gt;% dplyr::select(-MammaPrint_score, -rorS_score), by = &quot;Sample.ID&quot;) %&gt;% gather(key = key, value = value, -Sample.ID, -Patient.ID, -Treatment.Type, -Biopsy.Time, -DS, -ID) %&gt;% mutate(key = gsub(&quot;\\\\.[xy]&quot;, &quot;&quot;, .$key)) %&gt;% mutate(Int_status = rep(c(0,1), c(8792, 8792))) %&gt;% filter(Biopsy.Time == &quot;TP&quot; &amp; key == &quot;pam50&quot; &amp; Patient.ID %in% DF_order$Patient.ID) %&gt;% ggplot(aes(x = Patient.ID, y = as.factor(Int_status), fill = value)) + geom_tile() + scale_x_discrete(limits = rev(DF_order$Patient.ID)) + scale_fill_manual(values = c(&quot;red&quot;, &quot;pink&quot;, &quot;Darkblue&quot;, &quot;lightblue&quot;, &quot;green&quot;)) ) Lastly, the continuous risk evaluation shows a similar result of significant differences between the pre/post integration risk scoring. It is now clear from these four attempts however that there is a pattern generally of higher risk post integration for cohorts E1, E2 and E3 (The AI treated groups), and a slight reduction in risk for C1 and C2 (The chemotherapy treated groups). ( mammaprint_difference &lt;- annotation %&gt;% dplyr::select(Sample.ID, Patient.ID, Treatment.Type, Biopsy.Time, DS, MammaPrint_score, rorS_score) %&gt;% left_join(., BC_Subtype_distortion %&gt;% dplyr::select(Sample.ID, MammaPrint_score, rorS_score), by = &quot;Sample.ID&quot;) %&gt;% ggplot(aes(x = MammaPrint_score.x, y = MammaPrint_score.y)) + geom_point(mapping = aes(color = DS)) + geom_smooth(mapping = aes(color = DS)) + geom_point(data = reference, aes(x = reference$x, y = reference$y)) + xlim(-.89, .75) + ylim(-0.6, 0.6) ) ( rorS_difference &lt;- annotation %&gt;% dplyr::select(Sample.ID, Patient.ID, Treatment.Type, Biopsy.Time, DS, MammaPrint_score, rorS_score) %&gt;% left_join(., BC_Subtype_distortion %&gt;% dplyr::select(Sample.ID, MammaPrint_score, rorS_score), by = &quot;Sample.ID&quot;) %&gt;% ggplot(aes(x = rorS_score.x, y = rorS_score.y)) + geom_point(mapping = aes(color = DS)) + geom_smooth(mapping = aes(color = DS)) + geom_point(data = reference2, aes(x = reference2$x, y = reference2$y)) ) "],
["alternative.html", "Chapter 7 Alternative", " Chapter 7 Alternative Perhaps it is the size of the data, or complexities of covariates and features out of our control, but integration en masse of these different studies appears to do more harm than good, and results gleaned from the resulting merged dataset would have to be treated very carefully. This has not yet even taken in to consideration the true value of these cohorts which are the across time samples. Relative changes in these samples within a patient across treatment time are what make these studies extra valuable but will be massively confounded by the illustrated factors. In order to circumvent this I am proposing aggregating the data in a standard S4 datatype, the ExpressionSetList, with carefully crafted phenodata and feature data in order to perform specific analysis of this data across the datasets using bivariate entries in the annotation. In this way, the data can be minimally disturbed as possible, but the relative changes, results of analysis and differential expression can be compared. Below is an example of what the C1 entry in this list would look like. data &lt;- attach(&quot;data/eset_list.rda&quot;) data$eset_list[[1]] ## ExpressionSet (storageMode: lockedEnvironment) ## assayData: 17703 features, 95 samples ## element names: exprs ## protocolData: none ## phenoData ## sampleNames: NEO11_T1 NEO11_T2 ... NEO8_T4 (95 total) ## varLabels: X Sample.ID ... ID (32 total) ## varMetadata: labelDescription ## featureData: none ## experimentData: use &#39;experimentData(object)&#39; ## Annotation: Here we see the expression values for each sample. C1 &lt;- data$eset_list[[1]] exprs(C1) %&gt;% as_tibble() ## # A tibble: 17,703 x 95 ## NEO11_T1 NEO11_T2 NEO11_T3 NEO11_T4 NEO12_T1 NEO12_T4 NEO13_T1 NEO13_T3 ## &lt;dbl&gt; &lt;dbl&gt; &lt;dbl&gt; &lt;dbl&gt; &lt;dbl&gt; &lt;dbl&gt; &lt;dbl&gt; &lt;dbl&gt; ## 1 10.3 10.6 9.44 9.38 9.51 8.31 7.67 9.51 ## 2 0.901 1.17 1.54 2.13 2.12 2.30 3.93 2.45 ## 3 9.15 7.67 5.66 8.58 7.14 6.68 8.77 5.57 ## 4 6.08 6.11 5.80 6.25 6.17 6.32 5.94 6.09 ## 5 7.19 6.64 6.12 6.14 6.85 6.58 6.48 6.82 ## 6 2.71 3.71 3.68 3.26 4.34 3.81 5.25 3.83 ## 7 5.20 4.81 5.33 5.87 5.78 7.31 5.57 6.69 ## 8 3.49 3.37 4.25 4.46 3.64 4.21 4.70 4.68 ## 9 4.04 4.23 3.02 4.15 3.31 2.65 4.79 3.43 ## 10 5.52 5.29 5.14 4.89 5.03 5.70 5.19 5.30 ## # … with 17,693 more rows, and 87 more variables: NEO14_T1 &lt;dbl&gt;, ## # NEO14_T2 &lt;dbl&gt;, NEO15_T1 &lt;dbl&gt;, NEO15_T2 &lt;dbl&gt;, NEO15_T3 &lt;dbl&gt;, ## # NEO15_T4 &lt;dbl&gt;, NEO16_T1 &lt;dbl&gt;, NEO16_T2 &lt;dbl&gt;, NEO16_T3 &lt;dbl&gt;, ## # NEO16_T4 &lt;dbl&gt;, NEO17_T1 &lt;dbl&gt;, NEO17_T2 &lt;dbl&gt;, NEO17_T3 &lt;dbl&gt;, ## # NEO17_T4 &lt;dbl&gt;, NEO18_T1 &lt;dbl&gt;, NEO18_T2 &lt;dbl&gt;, NEO18_T4 &lt;dbl&gt;, ## # NEO19_T1 &lt;dbl&gt;, NEO19_T4 &lt;dbl&gt;, NEO20_T1 &lt;dbl&gt;, NEO20_T2 &lt;dbl&gt;, ## # NEO21_T1 &lt;dbl&gt;, NEO21_T2 &lt;dbl&gt;, NEO21_T3 &lt;dbl&gt;, NEO21_T4 &lt;dbl&gt;, ## # NEO22_T1 &lt;dbl&gt;, NEO22_T2 &lt;dbl&gt;, NEO22_T3 &lt;dbl&gt;, NEO22_T4 &lt;dbl&gt;, ## # NEO23_T1 &lt;dbl&gt;, NEO23_T2 &lt;dbl&gt;, NEO23_T3 &lt;dbl&gt;, NEO24_T1 &lt;dbl&gt;, ## # NEO24_T4 &lt;dbl&gt;, NEO26_T1 &lt;dbl&gt;, NEO26_T3 &lt;dbl&gt;, NEO26_T4 &lt;dbl&gt;, ## # NEO27_T1 &lt;dbl&gt;, NEO27_T3 &lt;dbl&gt;, NEO27_T4 &lt;dbl&gt;, NEO29_T1 &lt;dbl&gt;, ## # NEO29_T3 &lt;dbl&gt;, NEO3_T1 &lt;dbl&gt;, NEO3_T3 &lt;dbl&gt;, NEO3_T4 &lt;dbl&gt;, ## # NEO30_T1 &lt;dbl&gt;, NEO30_T3 &lt;dbl&gt;, NEO33_T1 &lt;dbl&gt;, NEO33_T3 &lt;dbl&gt;, ## # NEO33_T4 &lt;dbl&gt;, NEO34_T1 &lt;dbl&gt;, NEO34_T3 &lt;dbl&gt;, NEO34_T4 &lt;dbl&gt;, ## # NEO36_T1 &lt;dbl&gt;, NEO36_T3 &lt;dbl&gt;, NEO39_T1 &lt;dbl&gt;, NEO39_T4 &lt;dbl&gt;, ## # NEO42_T1 &lt;dbl&gt;, NEO42_T4 &lt;dbl&gt;, NEO43_T1 &lt;dbl&gt;, NEO43_T3 &lt;dbl&gt;, ## # NEO43_T4 &lt;dbl&gt;, NEO45_T1 &lt;dbl&gt;, NEO45_T3 &lt;dbl&gt;, NEO45_T4 &lt;dbl&gt;, ## # NEO46_T1 &lt;dbl&gt;, NEO46_T3 &lt;dbl&gt;, NEO46_T4 &lt;dbl&gt;, NEO47_T1 &lt;dbl&gt;, ## # NEO47_T3 &lt;dbl&gt;, NEO47_T4 &lt;dbl&gt;, NEO48_T1 &lt;dbl&gt;, NEO48_T3 &lt;dbl&gt;, ## # NEO48_T4 &lt;dbl&gt;, NEO49_T1 &lt;dbl&gt;, NEO49_T3 &lt;dbl&gt;, NEO49_T4 &lt;dbl&gt;, ## # NEO5_T1 &lt;dbl&gt;, NEO5_T2 &lt;dbl&gt;, NEO50_T1 &lt;dbl&gt;, NEO50_T3 &lt;dbl&gt;, ## # NEO51_T1 &lt;dbl&gt;, NEO51_T3 &lt;dbl&gt;, NEO51_T4 &lt;dbl&gt;, NEO8_T1 &lt;dbl&gt;, ## # NEO8_T2 &lt;dbl&gt;, NEO8_T4 &lt;dbl&gt; The feature data captures the rownames of each expression set and are stored as an extra object. fData(C1) ## data frame with 0 columns and 17703 rows And lastly the study relevant information can be callsed with the standard Biobase::pData() function. pData(C1) %&gt;% as_tibble() ## # A tibble: 95 x 32 ## X Sample.ID Patient.ID ER.Allred PR.Allred HER2.Status Response ## &lt;int&gt; &lt;fct&gt; &lt;fct&gt; &lt;int&gt; &lt;int&gt; &lt;fct&gt; &lt;int&gt; ## 1 768 NEO11_T1 NEO11 NA NA Negative 0 ## 2 769 NEO11_T2 NEO11 NA NA Negative 0 ## 3 770 NEO11_T3 NEO11 NA NA Negative 0 ## 4 771 NEO11_T4 NEO11 NA NA Negative 0 ## 5 772 NEO12_T1 NEO12 NA NA Positive 1 ## 6 773 NEO12_T4 NEO12 NA NA Positive 1 ## 7 774 NEO13_T1 NEO13 NA NA Positive 0 ## 8 775 NEO13_T3 NEO13 NA NA Positive 0 ## 9 776 NEO14_T1 NEO14 NA NA Negative 1 ## 10 777 NEO14_T2 NEO14 NA NA Negative 1 ## # … with 85 more rows, and 25 more variables: Nodal.Status &lt;int&gt;, ## # Grade.At.Diagnosis &lt;int&gt;, T &lt;fct&gt;, N &lt;fct&gt;, M &lt;fct&gt;, RFS &lt;dbl&gt;, ## # Recurrence &lt;fct&gt;, Treatment.Type &lt;fct&gt;, Biopsy.Time &lt;fct&gt;, ## # Platform &lt;fct&gt;, DS &lt;fct&gt;, ER_Status &lt;int&gt;, PR_Status &lt;int&gt;, ## # Study.ID &lt;int&gt;, smcod1 &lt;fct&gt;, scmod2 &lt;fct&gt;, pam50 &lt;fct&gt;, ## # ssp2006 &lt;fct&gt;, ssp2003 &lt;fct&gt;, IC10 &lt;fct&gt;, MammaPrint_risk &lt;int&gt;, ## # MammaPrint_score &lt;dbl&gt;, rorS_risk &lt;fct&gt;, rorS_score &lt;dbl&gt;, ID &lt;fct&gt; "]
]
