ID,LA Number,"Biopsy Number (1:Baseline, 2:2week, 3:3month/surgery, 4:additional/surgery)",Surgery or Core Biospy,DOS,Days from Treatment,Number of Samples per Patient,BB/BU Number,ECMC Consent,T,N,M,Grade,ER Status (IHC) Allred Score Pathology,Her2 (IHC) Pathology,Her2 (FISH) Pathology,On Microarray,Passed Microarray QC,On TMA,ER Score (AQUA),ER Status (IHC) Allred Score,Her2 (AQUA),Her2 (IHC) ,Her2 (FISH),Ki67 (AQUA),Initial Volume,Response Group,Mammogram Response,Type of Surgery,Progression,Surgery/ET Only,Years PFS (from treatment),Recurrence Date,Recurrence Type,Years DFS (from surgery),DOD,Cause of Death linked to BC,Drug Changes,Histology,Illumina Sentix Chip ID,Illumina Sentix Chip Position,Illumina Run Batch/Date,RNA Conc (Nano),RNA RIN (Agilent)
139-1,139,1,CB,31/10/2003,-11,2,BB003938,Pre-2006,T3,N0,M0,,7,0,Unknown,Yes,,Yes,8071.245,8,1520.906,150,,2765.713,19.134375,QSR,,,,Surgery ,,,,,Alive,,,,7649558036,L,20/03/2012,,
139-3,139,3,TH,13/05/2004,184,,BB004067,Pre-2006,,,,,,,,Yes,,Yes,2889.775,8,628.97272,50,,1412.563,,QSR,,,,Surgery ,,,,,Alive,,,,7649558036,F,20/03/2012,,
150-1,150,1,CB,05/04/2004,-22,3,BB004051,Pre-2006,T2,N1,M0,,7,3+ (Gene Level),Positive,Yes,,Yes,464.9616,7,9611.56,300,,6452.595,10.01947833,LateNR,,,Tumour,Surgery ,,,,,Alive,,,,7509336070,E,28/03/2012,,
150-2,150,2,CB,30/04/2004,3,,BB004055,Pre-2006,,,,,,,,Yes,,,,,,,,,,LateNR,,,Tumour,Surgery ,,,,,Alive,,,,7509336070,D,28/03/2012,,
150-3,150,3,TH,28/08/2004,123,,BB004110,Pre-2006,,,,,,,,Yes,,Yes,91.38293,0,8400.534,300,,5393.442,,LateNR,,,Tumour,Surgery ,,,,,Alive,,Yes,,7509336070,F,28/03/2012,,
171-1,171,1,CB,31/12/2004,0,3,BB007383,Pre-2006,T3,N1,M0,,7,Unknown,Unknown,Yes,,,,,,,,,17.91108333,QSR,,,Tumour,Surgery,,13/10/2005,Bone & Bone Marrow,,04/01/2006,Yes,,,7509336093,E,28/03/2012,,
171-2,171,2,CB,28/01/2005,28,,BB007406,Pre-2006,,,,,,,,Yes,,,,,,,,,,QSR,,,Tumour,Surgery,,13/10/2005,Bone & Bone Marrow,,04/01/2006,Yes,,,7509336093,G,28/03/2012,,
171-3,171,3,TH,05/09/2005,248,,BB005277,Pre-2006,,,,,,,,Yes,,,,,,,,,,QSR,,,Tumour,Surgery,,13/10/2005,Bone & Bone Marrow,,04/01/2006,Yes,,,7509336093,H,28/03/2012,,
172-1,172,1,CB,07/01/2005,-11,3,BB007389,Pre-2006,T4b,N0,M0,,7,Unknown,Unknown,Yes,,Yes,9134.517667,8,4201.551667,150,,1836.90355,3.875806667,Slow,,,,Surgery,,,,,Alive,,,,7509336093,C,28/03/2012,,
172-2,172,2,CB,04/02/2005,17,,BB007417,Pre-2006,,,,,,,,Yes,,Yes,1627.525,8,4841.220333,150,,629.4648333,,Slow,,,,Surgery,,,,,Alive,,,,7509336093,L,28/03/2012,,
172-3,172,3,TH,05/05/2005,107,,BB007473,Pre-2006,,,,,,,,Yes,,Yes,780.9634,7,1011.621,100,,252.3086,,Slow,,,,Surgery,,,,,Alive,,,,7509336093,F,28/03/2012,,
179-1,179,1,CB,11/03/2005,-11,3,BB007451,Pre-2006,T3,N1,M0,,8,3+,Positive,Yes,,Yes,649.0809,8,7150.342,300,,6466.888,15.72930667,LNR,,,Tumour,Surgery,,,,,Alive,,,,7509336086,K,13/03/2012,,
179-2,179,2,CB,08/04/2005,17,,BB007458,Pre-2006,,,,,,,,Yes,,Yes,724.3482,7.5,6442.791,300,,6343.102,,LNR,,,Tumour,Surgery,,,,,Alive,,,,7509336086,F,13/03/2012,,
179-3,179,3,TH,30/06/2005,100,,BB005179,Pre-2006,,,,,,,,Yes,,Yes,617.9503,5.5,6702.425,300,,2387.102,,LNR,,,Tumour,Surgery,,,,,Alive,,,,7509336086,B,13/03/2012,,
181-1,181,1,CB,04/04/2005,-8,2,BB005341,Pre-2006,T2,N0,M0,,7,3+,Positive,Yes,,Yes,3829.8006,8,3822.192,200,,4592.301,8.007,QSR,,,,Surgery,,08/05/2007,Bone,,10/03/2010,No,,,7649558036,C,20/03/2012,,
181-3,181,3,TH,11/08/2005,121,,BB005241,Pre-2006,,,,,,,,Yes,,Yes,10308.7792,8,1668.343,200,,526.9555,,QSR,,,,Surgery,,08/05/2007,Bone,,10/03/2010,No,Yes,,7649558036,G,20/03/2012,,
182-1,182,1,CB,18/04/2005,-8,2,BB007465,Pre-2006,T2,N0,M0,2,8,Unknown,Unknown,Yes,,Yes,5036.6436,8,1841.839,50,,1277.83,4.90625,QSR,,,,Surgery,,,,,24/11/2009,No,,,7509336047,G,16/03/2012,,
182-3,182,3,TH,27/09/2007,884,,BB008316,Pre-2006,,,,,,,,Yes,,Yes,7979.661667,8,812.2348,50,,848.9854,,QSR,,,,Surgery,,,,,24/11/2009,No,,,7509336047,E,16/03/2012,,
185-1,185,1,CB,30/05/2005,-8,3,BB005174,Pre-2006,T2,N0,M0,,8,Unknown,Unknown,Yes,,Yes,336.1534,6,2986.331,200,,2007.272,7.24869,LateNR,,,,Surgery,,,,,Alive,,,,7509336093,J,28/03/2012,,
185-2,185,2,CB,24/06/2005,17,,BB005198,Pre-2006,,,,,,,,Yes,,,,,,,,,,LateNR,,,,Surgery,,,,,Alive,,,,7509336093,A,28/03/2012,,
185-3,185,3,TH,29/09/2005,114,,BB007622,Pre-2006,,,,,,,,Yes,,Yes,995.9763,6,2869.285,200,,506.3216,,LateNR,,,,Surgery,,,,,Alive,,,,7509336093,B,28/03/2012,,
192-1,192,1,CB,08/08/2005,-8,2,BB005144,Pre-2006,T2,N0,M0,,8,2+,Negative,Yes,,,,,,,,,1.29525,LNR,,,,Surgery,,,,,Alive,,,,7509336047,I,16/03/2012,,
192-3,192,3,TH,11/12/2005,117,,BB005368,Pre-2006,,,,,,,,Yes,,,,,,,,,,LNR,,,,Surgery,,,,,Alive,,,,7509336047,F,16/03/2012,,
200-1,200,1,CB,30/12/2005,-11,3,BB005249,Pre-2006,T4b,N0,M0,,8,Unknown,Unknown,Yes,,Yes,650.945,8,1000.274,50,,2061.459,1.436026667,QSR,,,,Surgery,,,,,Alive,,,,7649558001,E,20/03/2012,,
200-2,200,2,CB,24/01/2006,14,,BB007949,Pre-2006,,,,,,,,Yes,,Yes,,,,,,,,QSR,,,,Surgery,,,,,Alive,,,,7649558001,H,20/03/2012,,
200-3,200,3,TH,20/04/2006,100,,BB007988,Pre-2006,,,,,,,,Yes,,,3369.156,8,542.1339,100,,2332.796,,QSR,,,,Surgery,,,,,Alive,,,,7649558001,G,20/03/2012,,
203-1,203,1,CB,16/01/2006,-8,3,BB007930,Pre-2006,T2,N0,M0,,8,Neg (Gene Level),Unknown,Yes,,,,,,,,,3.870573333,LateNR,,,,Surgery,,,,,Alive,,,,7509336061,A,28/03/2012,,
203-2,203,2,CB,10/02/2006,17,,BB007953,Pre-2006,,,,,,,,Yes,,,,,,,,,,LateNR,,,,Surgery,,,,,Alive,,,,7509336061,H,28/03/2012,,
203-3,203,3,TH,11/05/2006,107,,BB002496,Pre-2006,,,,,,,,Yes,,,,,,,,,,LateNR,,,,Surgery,,,,,Alive,,,,7509336061,G,28/03/2012,,
208-1,208,1,CB,10/02/2006,-11,2,BB007954,Pre-2006,T3,N1,MX,,8,1+,Negative,Yes,,,,,,,,,17.06563833,QSR,,,,Surgery,,,,,Alive,,,,7649558001,I,20/03/2012,,
208-2,208,2,CB,07/04/2006,45,,BB005388,Pre-2006,,,,,,,,Yes,,,,,,,,,,QSR,,,,Surgery,,,,,Alive,,,,7649558001,J,20/03/2012,,
209-1,209,1,CB,17/02/2006,-21,3,BB005476,Pre-2006,T3,N1,M0,,8,1+,Negative,Yes,,Yes,1335.263,8,999.3351,200,,2376.948,11.424105,QSR,,,,Surgery,,,,,Alive,,,,7649558068,A,20/03/2012,,
209-2,209,2,CB,10/03/2006,0,,BB007962,Pre-2006,,,,,,,,Yes,,Yes,1302.67,8,3327.514,250,,1692.954,,QSR,,,,Surgery,,,,,Alive,,,,7649558068,E,20/03/2012,,
209-3,209,3,TH,22/06/2006,104,,BB008016,Pre-2006,,,,,,,,Yes,,Yes,3119.963,8,1568.898,150,,883.9393,,QSR,,,,Surgery,,,,,Alive,,,,7649558068,L,20/03/2012,,
210-1,210,1,CB,27/02/2006,-8,2,BB005493,Pre-2006,T4b,N0,M0,,8,1+,Negative,Yes,,Yes,1504.117,8,1362.375,150,,4499.69,5.968485833,QSR,,,,Surgery,,,,,03/06/2010,UnkNown,,,6898481048,E,05/04/2012,,
210-3,210,3,TH,15/06/2006,100,,BB008008,Pre-2006,,,,,,,,Yes,,Yes,1202.248,6.5,911.9583,150,,784.6531,,QSR,,,,Surgery,,,,,03/06/2010,UnkNown,,,6898481048,L,05/04/2012,,
214-1,214,1,CB,24/03/2006,-11,3,BB005418,Pre-2006,T4b,N0,M0,,8,2+,Negative,Yes,,Yes,16592.142,8,9443.6056,150,,3562.757,4.112484167,EarlyNR,,,,Surgery,,,,,Alive,,,,7509336086,I,13/03/2012,,
214-2,214,2,CB,19/04/2006,15,,BB007987,Pre-2006,,,,,,,,Yes,,,,,,,,,,EarlyNR,,,,Surgery,,,,,Alive,,,,7509336086,A,13/03/2012,,
214-3,214,3,TH,24/08/2006,142,,BB008060,Pre-2006,,,,,,,,Yes,,Yes,14343.95,8,8489.73225,150,,832.2379,,EarlyNR,,,,Surgery,,,,,Alive,,,,7509336086,E,13/03/2012,,
215-1,215,1,CB,14/04/2006,-11,3,BB005576,Pre-2006,T2,N0,M0,,6,1+,Negative,Yes,,,,,,,,,4.98318,QSR,,,,,,,,,,,,,7649558001,A,20/03/2012,,
215-2,215,2,CB,10/05/2006,15,,BB007793,Pre-2006,,,,,,,,Yes,,,,,,,,,,QSR,,,,,,,,,,,,,7649558001,B,20/03/2012,,
215-3,215,3,TH,05/10/2006,163,,BB005052,GENERIC,,,,,,,,Yes,,,,,,,,,,QSR,,,,,,,,,,,,,7649558001,D,20/03/2012,,
225-1,225,1,CB,22/09/2006,-10,4,BB005034,29/10/2007,T4b,N0,M0,,7,Unknown,Negative,Yes,,,,,,,,,,Slow,,,Tumour & Bone/Liver Mets,,,,,,,,,,7649558041,I,20/03/2012,,
225-2,225,2,CB,20/10/2006,18,,BB005120,29/10/2007,,,,,,,,Yes,,,,,,,,,,Slow,,,Tumour & Bone/Liver Mets,,,,,,,,,,7649558041,F,20/03/2012,,
225-3,225,3,CB,29/12/2006,88,,BB005862,29/10/2007,,,,,,,,Yes,,,,,,,,,,Slow,,,Tumour & Bone/Liver Mets,,,,,,,,,,7649558041,C,20/03/2012,,
225-4,225,4,TH,29/10/2007,392,,BB008397,29/10/2007,,,,,,,,Yes,,,,,,,,,,Slow,,,Tumour & Bone/Liver Mets,,,,,,,,,,7649558041,B,20/03/2012,,
226-1,226,1,CB,29/09/2006,-11,3,BB005045,Patient Dead - Ethics Approved,T2,N0,M1,,8,2+,Negative,Yes,,,,,,,,,4.3351625,QSR,,,,Letrozole only,,01/09/2008,Liver,,13/10/2008,Yes,,,7649558059,G,20/03/2012,,
226-2,226,2,CB,24/10/2006,14,,BB008085,Patient Dead - Ethics Approved,,,,,,,,Yes,,,,,,,,,,QSR,,,,Letrozole only,,01/09/2008,Liver,,13/10/2008,Yes,,,7649558059,A,20/03/2012,,
226-3,226,3,CB,02/03/2007,143,,BB000030,Patient Dead - Ethics Approved,,,,,,,,Yes,,,,,,,,,,QSR,,,,Letrozole only,,01/09/2008,Liver,,13/10/2008,Yes,,,7649558059,B,20/03/2012,,
249-1,249,1,CB,04/06/2007,-8,2,BB008255,ECMC,T4b,N1,M0,,8,2+,Negative,Yes,,Yes,1365.142,8,4829.446667,150,,9271.167,,QSR,,,Tumour,Surgery,,,,,Alive,,,,7509336067,G,28/03/2012,,
249-3,249,3,CB,28/09/2007,124,,BB008320,ECMC,,,,,,,,Yes,,Yes,1037.759,8,2676.882,200,,1382.581,,QSR,,,Tumour,Surgery,,,,,Alive,,,,7509336067,K,28/03/2012,,
258-1,258,1,CB,20/07/2007,-11,2,BB008294,ECMC,T4b,N0,M0,,8,3+,Positive,Yes,,Yes,1768.034,8,5425.534,150,,5051.968,9.42,QSR,,,,Surgery,,,,,Alive,,,,7649558070,J,16/03/2012,,
258-3,258,3,TH,22/11/2007,114,,BB008127,ECMC,,,,,,,,Yes,,Yes,4098.284,8,825.0881,50,,813.4692,,QSR,,,,Surgery,,,,,Alive,,,,7649558070,K,16/03/2012,,
264-1,264,1,CB,06/08/2007,-17,2,BB008175,ECMC,T4b,N0,M0,2,8,2+,Negative,Yes,,Yes,1468.567,8,713.4163,150,,1960.122,18.79420833,Slow,,,,Letrozole only,,,,,Alive,,,,7509336086,H,13/03/2012,,
264-2,264,2,CB,14/09/2007,22,,BB008303,ECMC,,,,,,,,Yes,,Yes,2144.45,8,681.593,50,,1311.185,,Slow,,,,Letrozole only,,,,,Alive,,,,7509336086,L,13/03/2012,,
265-1,265,1,CB,20/08/2007,-8,2,BB008337,ECMC,T2,N0,M0,,8,2+,Negative,Yes,,Yes,3284.643,8,511.7094,100,,1908.085,24.03513,QSR,,,,Surgery,,,,,Alive,,,,7649558041,E,20/03/2012,,
265-3,265,3,CB,07/12/2007,101,,BB008213,ECMC,,,,,,,,Yes,,Yes,5905.511,7.5,1563.493,150,,706.3171,,QSR,,,,Surgery,,,,,Alive,,,,7649558041,J,20/03/2012,,
266-1,266,1,CB,28/08/2007,8,2,BB008343,ECMC - Data Issue Cleared by Lorna,T2,N0,M0,,8,1+,Negative,Yes,,,,,,,,,24.03513,QSR,,,,,,,,,,,,,7649558068,F,20/03/2012,,
266-3,266,3,CB,07/12/2007,109,,BB008186,ECMC - Data Issue Cleared by Lorna,,,,,,,,Yes,,,,,,,,,,QSR,,,,,,,,,,,,,7649558068,C,20/03/2012,,
269-1,269,1,CB,10/09/2007,-8,3,BB008178,ECMC,T2,N1,M0,3,8,1+,Negative,Yes,,Yes,4418.287,8,624.7221,100,,6526.745,4.838216667,QSR,,,,Surgery,,,,,Alive,,,,7649558041,A,20/03/2012,,
269-2,269,2,CB,05/10/2007,17,,BB008335,ECMC,,,,,,,,Yes,,,,,,,,,,QSR,,,,Surgery,,,,,Alive,,,,7649558041,G,20/03/2012,,
269-3,269,3,TH,14/02/2008,149,,BU000051,ECMC,,,,,,,,Yes,,Yes,6660.435,8,2785.528,220,,1859.678,,QSR,,,,Surgery,,,,,Alive,,,,7649558041,D,20/03/2012,,
270-1,270,1,CB,07/09/2007,-7,2,BB008370,ECMC,T2,N1,M0,,8,2+,Negative,Yes,,Yes,12730.02,7,4450.8584,150,,5816.165,4.046151667,QSR,,,,Surgery,,,,,Alive,,,,7649558070,C,16/03/2012,,
270-3,270,3,TH,10/01/2008,118,,BB008215,ECMC,,,,,,,,Yes,,Yes,6761.855,8,983.898,100,,537.1282,,QSR,,,,Surgery,,,,,Alive,,,,7649558070,D,16/03/2012,,
276-1,276,1,CB,08/10/2007,-7,2,BB008372,ECMC,T2,N1,M0,3,8,2+,Negative,Yes,,Yes,857.2291,7.5,1803.743,150,,7078.55,1.716795,Slow,,,,Surgery,,,,,Alive,,,,7509336086,C,13/03/2012,,
276-3,276,3,TH,28/02/2008,136,,BU000067,ECMC,,,,,,,,Yes,,Yes,386.0641,2.5,2422.574,100,,497.216,,Slow,,,,Surgery,,,,,Alive,,,,7509336086,G,13/03/2012,,
279-1,279,1,CB,08/10/2007,-15,2,BB008374,ECMC,T2,N0,M0,1,8,2+,Negative,Yes,,Yes,812.6111,8,2954.4446,150,,1413.593,3.32212,QSR,,,,Surgery,,01/03/2011,Contralateral Breast,,Alive,,,,6990990041,G,05/04/2012,,
279-3,279,3,TH,03/06/2008,224,,,ECMC,,,,,,,,Yes,,Yes,2852.272,7.5,1315.603,150,,1307.21,,QSR,,,,Surgery,,01/03/2011,Contralateral Breast,,Alive,,Yes,,6990990041,F,05/04/2012,,
281-1,281,1,CB,12/11/2007,-8,2,BU000086,ECMC,T2,N0,M0,2,8,2+,Negative,Yes,,Yes,1043.387,7.5,3030.849,150,,4253.211,3.69264,QSR,,,,Surgery,,,,,Alive,,,,7649558001,F,20/03/2012,,
281-3,281,3,TH,20/03/2008,121,,BB008147,ECMC,,,,,,,,Yes,,Yes,6426.788,8,1014.298,100,,380.2698,,QSR,,,,Surgery,,,,,Alive,,,,7649558001,C,20/03/2012,,
283L-1,283,1,CB,09/11/2007,-11,2,B008146,ECMC,T1,N0,M0,1,8,1+,Negative,Yes,,Yes,,,,,,,5.72736,QSR,,,,Surgery,,,,,Alive,,,,7509336078,J,16/03/2012,,
283L-3,283,3,TH,15/05/2008,177,,BU000159,ECMC,,,,,,,,Yes,,Yes,,,,,,,,QSR,,,,Surgery,,,,,Alive,,Yes,,7509336078,I,16/03/2012,,
288-1,288,1,CB,02/12/2007,-9,2,BB008184,ECMC,T2,N0,M0,,5,2+,Positive,Yes,,Yes,,,,,,,9.91926,LateNR,,,,Surgery,,,,,Alive,,,,7649558001,L,20/03/2012,,
288-3,288,2,CB,28/12/2007,17,,BU000107,ECMC,,,,,,,,Yes,,Yes,,,,,,,,LateNR,,,,Surgery,,,,,Alive,,,,7649558001,K,20/03/2012,,
289-1,289,1,CB,07/12/2007,-11,2,BB008187,Confirmed by Lorna,T4,N0,M0,,7,2+,Negative,Yes,,Yes,1205.835,7.5,2932.167,200,,3543.661,4.7119625,Slow,,,,Surgery,,,,,Alive,,,,7649558036,D,20/03/2012,,
289-3,289,3,TH,05/02/2009,415,,BU000760,Confirmed by Lorna,,,,,,,,Yes,,Yes,12852.706,8,937.3974,150,,910.35075,,Slow,,,,Surgery,,,,,Alive,,,,7649558036,E,20/03/2012,,
291-1,291,1,CB,09/01/2008,-16,3,BB008208,ECMC,T2,N1,MX,,7,2+,Negative,Yes,,Yes,4299.374,8,773.6544,100,,9683.959,15.38757,QSR,,,,Surgery,,,,,Alive,,,,7649558068,J,20/03/2012,,
291-2,291,2,CB,29/01/2008,4,,BU000019,ECMC,,,,,,,,Yes,,Yes,7997.922,8,1464.818,150,,831.1044,,QSR,,,,Surgery,,,,,Alive,,,,7649558068,K,20/03/2012,,
291-3,291,3,TH,07/03/2008,160,,BU000244,ECMC,,,,,,,,Yes,,Yes,9624.941,8,1100.8146,50,,5660.351,,QSR,,,,Surgery,,,,,Alive,,,,7649558068,B,20/03/2012,,
295-1,295,1,CB,15/02/2008,-11,2,BU000055,GENERIC,T1,N0,M0,2,8,2+,Negative,Yes,,,,,,,,,10.56139,LNR,,,,,,,,,,,,,7509336048,F,28/03/2012,,
295-3,295,3,CB,27/05/2008,91,,BU000199,GENERIC,,,,,,,,Yes,,,,,,,,,,LNR,,,,,,,,,,,,,7509336048,E,28/03/2012,,
299-1,299,1,CB,29/02/2008,-11,3,BU000071,ECMC,T2,N0,M0,2,7,1+,Negative,Yes,,Yes,1240.49,8,3754.997,200,,2189.566,5.12448,QSR,,,,Surgery,,,,,03/11/2009,,,,7509336047,H,16/03/2012,,
299-2,299,2,CB,01/04/2008,21,,BU000126,ECMC,,,,,,,,Yes,,,,,,,,,,QSR,,,,Surgery,,,,,03/11/2009,,,,7509336047,J,16/03/2012,,
299-3,299,3,TH,28/08/2008,170,,BU000375,ECMC,,,,,,,,Yes,,Yes,484.9683,8,1179.274,50,,434.60578,,QSR,,,,Surgery,,,,,03/11/2009,,,,7509336047,D,16/03/2012,,
300-1,300,1,CB,26/03/2008,-6,3,BU000115,ECMC,T1,N0,M0,3,8,3+,Positive,Yes,,,,,,,,,2.53869,QSR,,,,Surgery,,,,,Alive,,,,7649558036,H,20/03/2012,,
300-2,300,2,CB,24/06/2008,84,,BU000260,ECMC,,,,,,,,Yes,,,,,,,,,,QSR,,,,Surgery,,,,,Alive,,,,7649558036,B,20/03/2012,,
300-3,300,3,TH,06/11/2008,219,,BU000512,ECMC,,,,,,,,Yes,,,,,,,,,,QSR,,,,Surgery,,,,,Alive,,,,7649558036,A,20/03/2012,,
302-1,302,1,CB,22/04/2008,-7,2,BU000156,ECMC,T1,N0,MX,,7,2+,Negative,Yes,,Yes,755.6364,7.5,1197.342,100,,1481.858,13.9828125,QSR,,,,Surgery,,,,,Alive,,,,7509336086,D,13/03/2012,,
302-3,302,3,TH,23/10/2008,177,,BU000484,ECMC,,,,,,,,Yes,,Yes,4081.5454,6.5,1757.390667,100,,475.1642,,QSR,,,,Surgery,,,,,Alive,,,,7509336086,J,13/03/2012,,
309-1,309,1,CB,06/06/2008,-11,3,BU000224,ECMC,,,,,8,0,Unknown,Yes,,Yes,273.1768,8,924.776,100,,2108.625,2.093333333,QSR,,,,Surgery,,,,,Alive,,,,7649558059,H,20/03/2012,,
309-2,309,2,CB,02/07/2008,15,,BU000279,ECMC,,,,,,,,Yes,,Yes,1129.51,8,833.1456,100,,1470.676,,QSR,,,,Surgery,,,,,Alive,,,,7649558059,D,20/03/2012,,
309-3,309,3,TH,20/11/2008,156,,BU000541,ECMC,,,,,,,,Yes,,Yes,8852.5176,8,1356.1836,100,,1455.45598,,QSR,,,,Surgery,,,,,Alive,,,,7649558059,J,20/03/2012,,
311-1,311,1,CB,02/07/2008,-6,3,BU000278,ECMC,T1,N0,M0,3,8,2+,Positive,Yes,,Yes,11865.074,8,2172.096,250,,1833.172,2.4040625,Slow,,,,Surgery,,,,,Alive,,,,7509336067,H,28/03/2012,,
311-2,311,2,CB,22/07/2008,14,,BU000311,ECMC,,,,,,,,Yes,,Yes,12027.71167,8,5079.4348,250,,1135.633,,Slow,,,,Surgery,,,,,Alive,,,,7509336067,L,28/03/2012,,
311-3,311,3,TH,06/11/2008,121,,BU000510,ECMC,,,,,,,,Yes,,Yes,4529.657,8,3523.655,250,,716.7835,,Slow,,,,Surgery,,,,,Alive,,,,7509336067,E,28/03/2012,,
312-1,312,1,CB,27/06/2008,-11,3,BU000272,ECMC,T2,N0,M0,2,8,0,Positive,Yes,,Yes,5647.422,8,660.7926,50,,1366.795,4.083700833,QSR,,,,Surgery,,,,,Alive,,,,7509336093,K,28/03/2012,,
312-2,312,2,CB,22/07/2008,14,,BU000312,ECMC,,,,,,,,Yes,,Yes,2306.467,8,2414.483,150,,832.1663,,QSR,,,,Surgery,,,,,Alive,,,,7509336093,I,28/03/2012,,
312-3,312,3,TH,18/12/2008,163,,BU000728,ECMC,,,,,,,,Yes,,Yes,5290.399,8,946.6957,100,,1181.03,,QSR,,,,Surgery,,,,,Alive,,,,7509336093,D,28/03/2012,,
314-1,314,1,CB,27/06/2008,-11,2,BU000275,ECMC,T2,N0,M0,1,8,0,Negative,Yes,,Yes,508.997,8,1265.657,0,,2242.729,35.0789025,QSR,,,,Surgery,,,,,Alive,,,,7509336047,L,16/03/2012,,
314-3,314,3,TH,23/10/2008,107,,BU000482,ECMC,,,,,,,,Yes,,Yes,6486.516,8,739.9381,50,,903.8828,,QSR,,,,Surgery,,,,,Alive,,,,7509336047,A,16/03/2012,,
322-1,322,1,CB,08/09/2008,-15,3,BU000402,ECMC,T2,N1,M0,2,8,2+,Negative,Yes,,Yes,391.1913,7,1416.32,200,,2949.797,16.47819667,QSR,,,,Letrozole only,,,,,Alive,,,,7509336048,K,28/03/2012,,
322-2,322,2,CB,10/10/2008,17,,BU000461,ECMC,,,,,,,,Yes,,Yes,2947.47,8,3540.309,200,,854.3375,,QSR,,,,Letrozole only,,,,,Alive,,,,7509336048,L,28/03/2012,,
322-3,322,3,CB,23/12/2008,91,,BU000738,ECMC,,,,,,,,Yes,,Yes,2465.46,8,3043.156,200,,912.6146,,QSR,,,,Letrozole only,,,,,Alive,,,,7509336048,J,28/03/2012,,
323-1,323,1,CB,08/09/2008,-15,2,BU000400,ECMC,T2,N0,M0,,8,3+,Positive,Yes,,,,,,,,,5.560416667,QSR,,,,Surgery,,,,,Alive,,,,7509336048,H,28/03/2012,,
323-3,323,3,TH,02/12/2009,142,,BU000792,ECMC,,,,,,,,Yes,,,,,,,,,,QSR,,,,Surgery,,,,,Alive,,Yes,,7509336048,G,28/03/2012,,
325-1,325,1,CB,19/09/2008,-11,2,BU000417,ECMC,T2,N0,M0,2,8,2+,Negative,Yes,,Yes,3912.283,8,2006.21,200,,3881.653,8.802466667,Slow,,,,Surgery,,,,,Alive,,,,7509336089,J,13/03/2012,,
325-3,325,3,TH,29/04/2009,211,,BU001095,ECMC,,,,,,,,Yes,,Yes,6895.91825,8,1118.823,100,,430.8532,,Slow,,,,Surgery,,,,,Alive,,,,7509336089,L,13/03/2012,,
328-1,328,1,CB,17/10/2008,-25,3,BU000473,ECMC,T2,N0,M0,3,8,2+,Negative,Yes,,Yes,1888.03,7.5,1884.808,200,,2559.993,13.10793,QSR,,,,Surgery,,,,,Alive,,,,7509336061,E,28/03/2012,,
328-2,328,2,CB,25/11/2008,14,,BU000566,ECMC,,,,,,,,Yes,,Yes,1036.196,8,1457.187,250,,1330.879,,QSR,,,,Surgery,,,,,Alive,,,,7509336061,D,28/03/2012,,
328-3,328,3,TH,19/03/2009,128,,BU000838,ECMC,,,,,,,,Yes,,Yes,2481.698,8,1484.128,200,,764.9609,,QSR,,,,Surgery,,,,,Alive,,,,7509336061,I,28/03/2012,,
329-1,329,1,CB,19/12/2008,-18,3,BU000588,ECMC,T4b,N0,M0,2,8,2+,Negative,Yes,,Yes,375.8117,7,1959.887,200,,4524.5672,2.26865,Slow,,,,Surgery,,,,,Alive,,,,7509336089,G,13/03/2012,,
329-2,329,2,CB,20/01/2009,14,,BU000766,ECMC,,,,,,,,Yes,,Yes,152.1678,6,2030.243,200,,1043.395,,Slow,,,,Surgery,,,,,Alive,,,,7509336089,F,13/03/2012,,
329-3,329,3,TH,04/06/2009,149,,BU000930,ECMC,,,,,,,,Yes,,Yes,1728.773,6,1436.122,150,,671.8468,,Slow,,,,Surgery,,,,,Alive,,,,7509336089,D,13/03/2012,,
331-1,331,1,CB,24/11/2008,-8,3,BU000565,ECMC,T2,N0,M0,2,8,2+,Negative,Yes,,Yes,979.7931,8,926.928,50,,3730.275,1.663676667,LNR,,,,Surgery,,,,,Alive,,,,7509336089,K,13/03/2012,,
331-2,331,2,CB,17/12/2008,15,,BU000582,ECMC,,,,,,,,Yes,,Yes,369.7141,8,1193.281,150,,1882.201,,LNR,,,,Surgery,,,,,Alive,,,,7509336089,H,13/03/2012,,
331-3,331,3,TH,22/06/2009,202,,BU000941,ECMC,,,,,,,,Yes,,Yes,4781.848,8,1114.056,150,,2000.703,,LNR,,,,Surgery,,,,,Alive,,,,7509336089,I,13/03/2012,,
332-1,332,1,CB,26/11/2008,-6,3,BU000567,ECMC,T4b,N0,M0,,8,3+,Positive,Yes,,,,,,,,,25.5984575,Slow,,,,Surgery,,,,,Alive,,,,7649558059,K,20/03/2012,,
332-2,332,2,CB,17/12/2008,15,,BU000583,ECMC,,,,,,,,Yes,,,,,,,,,,Slow,,,,Surgery,,,,,Alive,,,,7649558059,E,20/03/2012,,
332-3,332,3,CB,20/03/2009,108,,BU000640,ECMC,,,,,,,,Yes,,,,,,,,,,Slow,,,,Surgery,,,,,Alive,,,,7649558059,C,20/03/2012,,
333-1,333,1,CB,29/12/2008,-15,3,BU000593,ECMC,T2,NX,M0,2,8,3+,Positive,Yes,,,,,,,,,19.11108667,QSR,,,,Surgery,,,,,Alive,,,,7509336088,L,16/03/2012,,
333-2,333,2,CB,04/02/2009,22,,BU000617,ECMC,,,,,,,,Yes,,,,,,,,,,QSR,,,,Surgery,,,,,Alive,,,,7509336088,D,16/03/2012,,
333-3,333,3,TH,01/08/2009,200,,BU000995,ECMC,,,,,,,,Yes,,,,,,,,,,QSR,,,,Surgery,,,,,Alive,,Yes,,7509336088,G,16/03/2012,,
334-1,334,1,CB,29/12/2008,-15,3,BU000591,ECMC,T4b,N1,M0,2,8,3+,Positive,Yes,,,,,,,,,5.8875,QSR,,,,Surgery,,,,,Alive,,,,7509336070,A,28/03/2012,,
334-2,334,2,CB,04/02/2009,22,,BU000615,ECMC,,,,,,,,Yes,,,,,,,,,,QSR,,,,Surgery,,,,,Alive,,,,7509336070,C,28/03/2012,,
334-3,334,3,TH,21/05/2009,128,,BU000914,ECMC,,,,,,,,Yes,,,,,,,,,,QSR,,,,Surgery,,,,,Alive,,,,7509336070,H,28/03/2012,,
340-1,340,1,CB,04/05/2009,-8,4,BU000657,ECMC - Data Issue Cleared by Lorna,T4b,N0,M1,1,8,2+,Negative,Yes,,,,,,,,,5.260023333,Slow,,,,Surgery,,,,,Alive,,,,7509336065,F,16/03/2012,,
340-2,340,2,CB,02/06/2009,21,,BU000672,ECMC - Data Issue Cleared by Lorna,,,,,,,,Yes,,,,,,,,,,Slow,,,,Surgery,,,,,Alive,,,,7509336065,C,16/03/2012,,
340-3,340,3,CB,11/08/2009,91,,BU001043,ECMC - Data Issue Cleared by Lorna,,,,,,,,Yes,,,,,,,,,,Slow,,,,Surgery,,,,,Alive,,,,7509336065,I,16/03/2012,,
340-4,340,4,TH,11/02/2010,275,,BU001614,ECMC - Data Issue Cleared by Lorna,,,,,,,,Yes,,,,,,,,,,Slow,,,,Surgery,,,,,Alive,,Yes,,7509336065,K,16/03/2012,,
341-1,341,1,CB,08/05/2009,-11,3,BU000661,10/06/2010,T2,N1,M0,1,8,2+,Negative,Yes,,,,,,,,,4.046151667,Slow,,,,Surgery,,,,,Alive,,,,7509336078,H,16/03/2012,,
341-2,341,2,CB,02/09/2009,106,,BU001084,10/06/2010,,,,,,,,Yes,,,,,,,,,,Slow,,,,Surgery,,,,,Alive,,,,7509336078,D,16/03/2012,,
341-3,341,3,TH,10/06/2010,387,,BU001775,10/06/2010,,,,,,,,Yes,,,,,,,,,,Slow,,,,Surgery,,,,,Alive,,,,7509336078,G,16/03/2012,,
343-1,343,1,CB,24/05/2009,-16,4,BU000668,24/06/2010,T3,N1,M0,2,8,1+,Negative,Yes,,,,,,,,,16.53079167,QSR,,,,Surgery,,,,,Alive,,,,7649558070,B,16/03/2012,,
343-2,343,2,CB,30/06/2009,21,,BU000698,24/06/2010,,,,,,,,Yes,,,,,,,,,,QSR,,,,Surgery,,,,,Alive,,,,7649558070,F,16/03/2012,,
343-3,343,3,CB,22/09/2009,105,,BU001113,24/06/2010,,,,,,,,Yes,,,,,,,,,,QSR,,,,Surgery,,,,,Alive,,,,7649558070,G,16/03/2012,,
343-4,343,4,TH,24/06/2010,380,,BU001784,24/06/2010,,,,,,,,Yes,,,,,,,,,,QSR,,,,Surgery,,,,,Alive,,,,7649558070,A,16/03/2012,,
346-1,346,1,CB,19/06/2009,-11,3,BU000687,18/02/2010,T2,N0,M0,2,8,3+,Positive,Yes,,,,,,,,,3.3912,Slow,,,,Surgery,,,,,Alive,,,,7509336065,E,16/03/2012,,
346-2,346,2,CB,22/07/2009,22,,BU001003,18/02/2010,,,,,,,,Yes,,,,,,,,,,Slow,,,,Surgery,,,,,Alive,,,,7509336065,B,16/03/2012,,
346-3,346,3,CB,18/02/2010,233,,BU001624,18/02/2010,,,,,,,,Yes,,,,,,,,,,Slow,,,,Surgery,,,,,Alive,,,,7509336065,L,16/03/2012,,
350-1,350,1,CB,21/08/2009,-11,4,BU001053,06/05/2010,T4b,N1,M0,3,8,1+,Negative,Yes,,,,,,,,,13.81927083,QSR,,,Tumour,,,,,,,,,,7509336048,D,28/03/2012,,
350-2,350,2,CB,30/09/2009,29,,BU001138,06/05/2010,,,,,,,,Yes,,,,,,,,,,QSR,,,Tumour,,,,,,,,,,7509336048,C,28/03/2012,,
350-3,350,3,CB,13/01/2010,134,,BU001222,06/05/2010,,,,,,,,Yes,,,,,,,,,,QSR,,,Tumour,,,,,,,,,,7509336048,B,28/03/2012,,
350-4,350,4,TH,06/05/2010,247,,BU001728,06/05/2010,,,,,,,,Yes,,,,,,,,,,QSR,,,Tumour,,,,,,,,,,7509336048,A,28/03/2012,,
353-1,353,1,CB,04/09/2009,-11,2,BU001085,Patient Dead - Ethics Approved,,,,,,,,Yes,,,,,,,,,6.48567,QSR,,,,Letrozole only,,,,,27/10/2010,No,,,7509336065,J,16/03/2012,,
353-2,353,2,CB,06/10/2009,21,,BU001146,Patient Dead - Ethics Approved,,,,,,,,Yes,,,,,,,,,,QSR,,,,Letrozole only,,,,,27/10/2010,No,,,7509336065,G,16/03/2012,,
354-1,354,1,CB,23/09/2009,-8,2,BU001114,25/02/2010,T2,N0,M0,,8,0,Unknown,Yes,,,,,,,,,12.76357667,QSR,,,,Surgery,,,,,Alive,,,,7509336078,F,16/03/2012,,
354-2,354,2,CB,14/10/2009,13,,BU001153,25/02/2010,,,,,,,,Yes,,,,,,,,,,QSR,,,,Surgery,,,,,Alive,,,,7509336078,A,16/03/2012,,
355-1,355,1,CB,25/09/2009,-11,3,BU001116,ECMC,T1,N0,M0,,8,0,Unknown,Yes,,Yes,5504.84,8,1031.596,100,,2341.913,0.67824,QSR,,,,Surgery,,,,,Alive,,,,7509336065,D,16/03/2012,,
355-2,355,2,CB,30/10/2009,24,,BU001162,ECMC,,,,,,,,Yes,,Yes,8043.094,8,1660.261,150,,2378.626,,QSR,,,,Surgery,,,,,Alive,,,,7509336065,A,16/03/2012,,
355-3,355,3,TH,04/02/2010,121,,BU001596,ECMC,,,,,,,,Yes,,Yes,5174.622,8,1218.922,100,,652.1873,,QSR,,,,Surgery,,,,,Alive,,,,7509336065,H,16/03/2012,,
357-1,357,1,CB,25/09/2009,-11,3,BU001115,12/04/2010,T2,N0,M0,,7,Unknown,Unknown,Yes,,,,,,,,,3.6286625,Slow,,,,Surgery,,,,,Alive,,,,7509336088,K,16/03/2012,,
357-2,357,2,CB,13/11/2009,38,,BU001180,12/04/2010,,,,,,,,Yes,,,,,,,,,,Slow,,,,Surgery,,,,,Alive,,,,7509336088,I,16/03/2012,,
357-3,357,3,TH,12/04/2010,188,,BU001698,12/04/2010,,,,,,,,Yes,,,,,,,,,,Slow,,,,Surgery,,,,,Alive,,,,7509336088,E,16/03/2012,,
363-1,363,1,CB,13/11/2009,-11,4,BU001182,19/03/2010,T2,N0,M0,,8,3+,Positive,Yes,,,,,,,,,3.46185,EarlyNR,,,,Surgery,,,,,Alive,,,,7509336078,B,16/03/2012,,
363-2,363,2,CB,15/12/2009,21,,BU001212,19/03/2010,,,,,,,,Yes,,,,,,,,,,EarlyNR,,,,Surgery,,,,,Alive,,,,7509336078,E,16/03/2012,,
363-3,363,3,CB,19/03/2010,115,,BU001271,19/03/2010,,,,,,,,Yes,,,,,,,,,,EarlyNR,,,,Surgery,,,,,Alive,,,,7509336078,C,16/03/2012,,
363-4,363,4,TH,19/08/2010,268,,BU001882,ECMC,,,,,,,,Yes,,,,,,,,,,EarlyNR,,,,Surgery,,,,,Alive,,,,7509336078,L,16/03/2012,,
364-1,364,1,CB,13/11/2009,-10,4,BU001181,ECMC,T2,N0,M0,,8,Neg (Gene Level),Unknown,Yes,,Yes,5798.144,8,3622.443,150,,5249.169,6.63168,LateNR,,,,Surgery,,,,,Alive,,,,7649558070,E,16/03/2012,,
364-2,364,2,CB,08/12/2009,15,,BU001200,ECMC,,,,,,,,Yes,,Yes,1946.671,7,3355.466,200,,4207.672,,LateNR,,,,Surgery,,,,,Alive,,,,7649558070,H,16/03/2012,,
364-3,364,3,CB,23/02/2010,92,,BU001252,ECMC,,,,,,,,Yes,,Yes,647.976,6.5,2550.56,150,,1491.96,,LateNR,,,,Surgery,,,,,Alive,,,,7649558070,I,16/03/2012,,
364-4,364,4,TH,15/07/2010,234,,BU001799,ECMC,,,,,,,,Yes,,Yes,1945.141,7.5,3436.948,200,,1987,,LateNR,,,,Surgery,,,,,Alive,,,,7649558070,L,16/03/2012,,
367-1,367,1,CB,14/12/2009,-8,3,BU001205,ECMC,T4,N0,M0,,8,3+,Positive,Yes,,Yes,3041.452,8,7390.457,300,,7596.398,1.20576,LNR,,,,Surgery,,,,,Alive,,,,7509336061,F,28/03/2012,,
367-2,367,2,CB,19/01/2010,28,,BU001228,ECMC,,,,,,,,Yes,,Yes,2166.259,8,7201.75,300,,1086.304,,LNR,,,,Surgery,,,,,Alive,,,,7509336061,K,28/03/2012,,
367-3,367,3,TH,23/07/2010,213,,BU001805,ECMC,,,,,,,,Yes,,Yes,2515.498,8,8215.443,300,,2950.646,,LNR,,,,Surgery,,,,,Alive,,,,7509336061,B,28/03/2012,,
369-1,369,1,CB,09/02/2010,0,3,BU001242,19/08/2010,T2,N0,M0,,8,3+,Positive,Yes,,,,,,,,,6.36792,QSR,,,,Surgery,,,,,Alive,,,,7509336088,B,16/03/2012,,
369-2,369,2,CB,23/02/2010,14,,BU001253,19/08/2010,,,,,,,,Yes,,,,,,,,,,QSR,,,,Surgery,,,,,Alive,,,,7509336088,J,16/03/2012,,
369-3,369,3,TH,19/08/2010,191,,BU001884,19/08/2010,,,,,,,,Yes,,,,,,,,,,QSR,,,,Surgery,,,,,Alive,,,,7509336088,A,16/03/2012,,
373R-1,373,1,CB,15/03/2010,-8,3,BU001269,ECMC,T1,N0,M0,,8,0,Unknown,Yes,,Yes,,,,,,,1.60768,QSR,,,,Surgery,,,,,Alive,,,,7509336088,H,16/03/2012,,
373R-2,373,2,CB,13/04/2010,21,,BU001286,ECMC,,,,,,,,Yes,,,,,,,,,,QSR,,,,Surgery,,,,,Alive,,,,7509336088,F,16/03/2012,,
373R-3,373,3,TH,23/09/2010,184,,BU001921,ECMC,,,,,,,,Yes,,Yes,,,,,,,,QSR,,,,Surgery,,,,,Alive,,,,7509336088,C,16/03/2012,,
374-1,374,1,CB,12/03/2010,-11,3,BU001266,ECMC,T1,N0,M0,,8,0,Unknown,Yes,,Yes,10404.62533,8,7396.1202,200,,2177.0025,3.3829575,QSR,,,,Surgery,,,,,Alive,,,,7509336089,C,13/03/2012,,
374-2,374,2,CB,13/04/2010,21,,BU001284,ECMC,,,,,,,,Yes,,Yes,835.8989,8,2589.064,200,,800.3334,,QSR,,,,Surgery,,,,,Alive,,,,7509336089,B,13/03/2012,,
374-3,374,3,TH,22/07/2010,121,,BU001816,ECMC,,,,,,,,Yes,,Yes,1867.218,8,9827.3838,200,,1955.544,,QSR,,,,Surgery,,,,,Alive,,,,7509336089,A,13/03/2012,,
378-1,378,1,CB,25/05/2010,,3,BU001308,20/05/2010,,,,,,,,Yes,,,,,,,,,,,,,,Surgery,,,,,Alive,,,,6990990041,K,05/04/2012,,
378-2,378,2,CB,08/09/2010,,,BU001343,20/05/2010,,,,,,,,Yes,,,,,,,,,,,,,,Surgery,,,,,Alive,,,,6990990041,L,05/04/2012,,
378-3,378,3,TH,09/05/2011,,,BU002376,20/05/2010,,,,,,,,Yes,,,,,,,,,,,,,,Surgery,,,,,Alive,,,,6990990041,C,05/04/2012,,
380-1,380,1,CB,26/07/2010,,3,BU001326,19/01/2011,,,,,,,,Yes,,,,,,,,,,,,,,Surgery,,,,,Alive,,,,6990990041,D,05/04/2012,,
380-2,380,2,CB,19/01/2011,,,BU001389,19/01/2011,,,,,,,,Yes,,,,,,,,,,,,,,Surgery,,,,,Alive,,,,6990990041,B,05/04/2012,,
380-3,380,3,TH,07/07/2011,,,BU002313,19/01/2011,,,,,,,,Yes,,,,,,,,,,,,,,Surgery,,,,,Alive,,,,6990990041,A,05/04/2012,,
381-1,381,1,CB,02/08/2010,,4,BU001330,25/08/2011,,,,,,,,Yes,,,,,,,,,,,,,,Surgery,,,,,Alive,,,,6990990041,I,05/04/2012,,
381-2,381,2,CB,31/08/2010,,,BU001337,25/08/2011,,,,,,,,Yes,,,,,,,,,,,,,,Surgery,,,,,Alive,,,,6990990041,H,05/04/2012,,
381-3,381,3,CB,01/12/2010,,,BU001376,25/08/2011,,,,,,,,Yes,,,,,,,,,,,,,,Surgery,,,,,Alive,,,,6990990041,J,05/04/2012,,
381-4,381,4,TH,25/08/2011,,,BU002269,25/08/2011,,,,,,,,Yes,,,,,,,,,,,,,,Surgery,,,,,Alive,,,,6990990041,E,05/04/2012,,
382-1,382,1,CB,17/09/2010,,3,BU001348,14/03/2011,,,,,,,,Yes,,,,,,,,,,,,,,,,,,,,,,,7509336067,A,28/03/2012,,
382-2,382,2,CB,26/10/2010,,,BU001963,14/03/2011,,,,,,,,Yes,,,,,,,,,,,,,,,,,,,,,,,7509336067,D,28/03/2012,,
382-3,382,3,TH,14/03/2011,,,BU002424,14/03/2011,,,,,,,,Yes,,,,,,,,,,,,,,,,,,,,,,,7509336067,I,28/03/2012,,
392-1,392,1,CB,18/03/2011,,3,BU001422,24/03/2011,,,,,,,,Yes,,,,,,,,,,,,,,Surgery,,,,,Alive,,,,7509336067,J,28/03/2012,,
392-2,392,2,CB,26/04/2011,,,BU001441,24/03/2011,,,,,,,,Yes,,,,,,,,,,,,,,Surgery,,,,,Alive,,,,7509336067,B,28/03/2012,,
392-3,392,3,TH,06/07/2011,,,BU001482,24/03/2011,,,,,,,,Yes,,,,,,,,,,,,,,Surgery,,,,,Alive,,,,7509336067,C,28/03/2012,,
393-1,393,1,CB,17/03/2011,,3,BU001424,03/11/2011,,,,,,,,Yes,,,,,,,,,,,,,,Surgery,,,,,Alive,,,,6898481048,I,05/04/2012,,
393-2,393,2,CB,10/05/2011,,,BU001447,03/11/2011,,,,,,,,Yes,,,,,,,,,,,,,,Surgery,,,,,Alive,,,,6898481048,C,05/04/2012,,
393-3,393,3,TH,03/11/2011,,,BU002199,03/11/2011,,,,,,,,Yes,,,,,,,,,,,,,,Surgery,,,,,Alive,,,,6898481048,G,05/04/2012,,
394-1,394,1,CB,19/05/2011,,3,BU001452,03/11/2011,,,,,,,,Yes,,,,,,,,,,,,,,Surgery,,,,,Alive,,,,6898481048,A,05/04/2012,,
394-2,394,2,CB,07/06/2011,,,BU001466,03/11/2011,,,,,,,,Yes,,,,,,,,,,,,,,Surgery,,,,,Alive,,,,6898481048,F,05/04/2012,,
394-3,394,3,TH,13/10/2011,,,BU002217,03/11/2011,,,,,,,,Yes,,,,,,,,,,,,,,Surgery,,,,,Alive,,,,6898481048,D,05/04/2012,,
,,,,,Quadruples,7,,,,,,,,,,,,,,,,,,,,,,,,,,,,,,,,,,,,,
,,,,,Triples,39,,,,,,,,,,,,,,,,,,,,,,,,,,,,,,,,,,,,,
,,,,,Doubles,25,,,,,,,,,,,,,,,,,,,,,,,,,,,,,,,,,,,,,
,,,,,Total,71,,,,,,,,,,,,,,,,,,,,,,,,,,,,,,,,,,,,,